EmployeeNumber,Age,Attrition,BusinessTravel,Department,DistanceFromHome,EnvironmentSatisfaction,Gender,JobInvolvement,JobSatisfaction,MaritalStatus,MonthlyIncome,NumCompaniesWorked,OverTime,PercentSalaryHike,TrainingTimesLastYear,WorkLifeBalance,YearsInCurrentRole
1,41,1,0,0,1,2,0,3,4,0,5993,8,1,11,0,1,4
2,49,0,1,1,8,3,1,2,2,1,5130,1,0,23,3,3,7
4,37,1,0,1,2,4,1,2,3,0,2090,6,1,15,3,3,0
5,33,0,1,1,3,4,0,3,3,1,2909,1,1,11,3,3,7
7,27,0,0,1,2,1,1,3,2,1,3468,9,0,12,3,3,2
8,32,0,1,1,2,4,1,3,4,0,3068,0,0,13,2,2,7
10,59,0,0,1,3,3,0,4,1,1,2670,4,1,20,3,2,0
11,30,0,0,1,24,4,1,3,3,2,2693,1,0,22,2,3,0
12,38,0,1,1,23,4,1,2,3,0,9526,0,0,21,2,3,7
13,36,0,0,1,27,3,1,3,3,1,5237,6,0,13,3,2,7
14,35,0,0,1,16,1,1,4,2,1,2426,0,0,13,5,3,4
15,29,0,0,1,15,4,0,2,3,0,4193,0,1,12,3,3,5
16,31,0,0,1,26,1,1,3,3,2,2911,1,0,17,1,2,2
18,34,0,0,1,19,2,1,3,4,2,2661,0,0,11,2,3,2
19,28,1,0,1,24,3,1,2,3,0,2028,5,1,14,4,3,2
20,29,0,0,1,21,2,0,4,1,2,9980,1,0,11,1,3,9
21,32,0,0,1,5,1,1,4,2,2,3298,0,1,12,5,2,2
22,22,0,2,1,16,4,1,4,4,2,2935,1,1,13,2,2,0
23,53,0,0,0,2,1,0,2,4,1,15427,2,0,16,3,3,8
24,38,0,0,1,2,4,1,3,4,0,3944,5,1,11,3,3,2
26,24,0,2,1,11,1,0,4,3,2,4011,0,0,18,5,2,2
27,36,1,0,0,9,3,1,2,1,0,3407,7,0,23,4,3,3
28,34,0,0,1,7,1,0,3,2,0,11994,0,0,11,4,3,6
30,21,0,0,1,15,3,1,3,4,0,1232,1,0,14,6,3,0
31,34,1,0,1,6,2,1,3,1,0,2960,2,0,11,2,3,2
32,53,0,0,1,5,3,0,3,3,2,19094,4,0,11,3,2,13
33,32,1,1,1,16,2,0,1,1,0,3919,1,1,22,5,3,2
35,42,0,0,0,8,3,1,3,2,1,6825,0,0,11,2,3,7
36,44,0,0,1,7,1,0,2,4,1,10248,3,0,14,4,3,6
38,46,0,0,0,2,2,0,3,1,0,18947,3,0,12,2,2,2
39,33,0,0,1,2,3,1,3,4,0,2496,4,0,11,3,3,1
40,44,0,0,1,10,4,1,3,4,1,6465,2,1,13,5,4,2
41,30,0,0,1,9,4,1,2,3,0,2206,1,0,13,5,3,0
42,39,1,0,0,5,4,1,3,4,1,2086,3,0,14,6,4,0
45,24,1,0,1,1,2,1,3,4,1,2293,2,1,16,2,2,0
46,43,0,0,1,2,4,0,4,3,2,2645,1,0,12,3,2,3
47,50,1,0,0,3,1,1,2,3,1,2683,1,1,14,2,3,2
49,35,0,0,0,2,4,0,3,4,1,2014,1,0,13,3,3,2
51,36,0,0,1,5,2,0,2,1,1,3419,9,1,14,3,4,1
52,33,0,1,0,1,3,0,4,1,1,5376,2,0,19,3,3,3
53,35,0,0,1,4,3,1,3,4,2,1951,1,0,12,3,3,0
54,27,0,0,1,2,4,0,3,1,2,2341,1,0,13,6,3,0
55,26,1,0,1,25,1,1,1,3,0,2293,1,0,12,2,2,0
56,27,0,1,0,8,4,1,3,3,0,8726,1,0,15,0,3,8
57,30,0,1,1,1,3,0,3,4,0,4011,1,0,23,2,3,8
58,41,1,0,1,12,2,0,3,3,1,19545,1,0,12,0,3,15
60,34,0,2,0,23,2,1,3,3,0,4568,0,0,20,2,3,5
61,37,0,0,1,19,2,1,3,2,1,3022,4,0,21,1,3,0
62,46,0,1,0,5,1,1,3,4,0,5772,4,1,21,4,3,6
63,35,0,0,1,8,4,1,4,4,1,2269,1,0,19,2,3,0
64,48,1,0,1,1,1,1,2,3,0,5381,9,1,13,2,3,0
65,28,1,0,1,5,3,1,3,3,0,3441,1,1,13,3,2,2
68,44,0,0,0,1,2,0,3,1,2,5454,5,1,21,2,2,3
70,35,0,2,1,11,3,1,2,1,1,9884,2,1,13,3,3,0
72,26,0,0,0,23,3,0,2,4,1,4157,7,1,19,2,2,2
73,33,0,1,1,1,1,0,3,4,0,13458,1,1,12,1,3,14
74,35,0,1,0,18,2,1,3,1,1,9069,1,0,22,3,2,8
75,35,0,0,1,23,3,0,3,1,1,4014,3,1,15,3,3,2
76,31,0,0,1,7,4,1,3,4,2,5915,3,0,22,3,2,7
77,37,0,0,1,1,1,1,2,3,2,5993,1,0,18,2,4,5
78,32,0,0,1,1,1,1,3,4,1,6162,1,1,22,3,3,8
79,38,0,1,1,29,4,0,3,4,0,2406,1,0,11,2,3,3
80,50,0,0,1,7,2,0,2,3,2,18740,5,1,12,2,2,3
81,59,0,0,0,25,1,0,3,1,0,7637,7,0,11,3,2,16
83,36,0,0,1,8,3,0,3,3,2,10096,1,0,13,2,3,14
84,55,0,0,1,8,4,0,3,3,2,14756,2,1,14,2,3,0
85,36,0,1,1,11,2,1,2,2,0,6499,1,0,13,3,3,5
86,45,0,0,1,7,2,1,3,1,2,9724,2,0,17,2,3,0
88,35,0,1,1,1,2,1,3,1,1,2194,4,0,13,2,2,2
90,36,1,0,1,9,4,1,2,3,1,3388,0,1,17,0,2,0
91,59,0,1,0,1,1,0,2,3,0,5473,7,0,11,2,2,3
94,29,0,0,1,2,3,1,3,2,1,2703,0,0,23,3,3,4
95,31,0,0,1,1,3,1,3,2,0,2501,1,0,17,4,3,1
96,32,0,0,1,1,2,1,3,2,1,6220,1,0,17,3,3,4
97,36,0,0,1,6,2,0,4,4,1,3038,3,0,12,3,3,0
98,31,0,0,1,8,3,0,3,4,0,4424,1,0,23,2,3,7
100,35,0,0,0,1,3,1,2,1,0,4312,0,0,14,2,3,13
101,45,0,0,1,6,4,1,3,1,1,13245,4,1,14,3,4,0
102,37,0,0,1,7,1,1,3,3,0,13664,4,0,13,3,4,2
103,46,0,0,2,5,2,1,3,2,2,5021,8,1,22,2,3,2
104,30,0,0,1,1,4,1,2,4,1,5126,1,1,12,1,2,8
105,35,0,0,1,1,2,1,2,3,0,2859,1,0,18,3,3,4
106,55,0,0,0,1,1,1,3,4,1,10239,3,0,14,4,3,0
107,38,0,2,1,6,2,0,1,4,2,5329,7,1,12,3,3,11
110,34,0,0,1,1,1,1,3,2,1,4325,1,0,15,2,3,2
112,56,0,0,1,7,4,1,1,4,0,7260,4,0,11,3,2,4
113,23,0,0,0,2,3,1,3,1,2,2322,3,0,13,3,3,0
116,51,0,0,1,9,4,1,3,4,1,2075,3,0,23,4,3,2
117,30,0,0,1,2,3,1,2,4,1,4152,1,0,19,3,3,10
118,46,1,0,0,9,3,1,2,4,0,9619,1,0,16,3,3,8
119,40,0,1,1,1,3,1,2,2,1,13503,1,0,22,3,2,3
120,51,0,0,0,21,3,1,3,4,0,5441,0,1,22,2,1,7
121,30,0,0,0,4,3,0,2,2,2,5209,1,1,12,4,2,8
124,46,0,1,1,1,3,1,2,1,1,10673,2,1,13,5,2,9
125,32,0,0,0,6,2,1,3,3,0,5010,1,0,16,0,3,8
126,54,0,0,1,2,1,0,3,3,1,13549,9,0,12,5,1,3
128,24,0,0,0,3,1,0,3,3,1,4999,0,0,21,2,2,2
129,28,0,2,0,4,2,1,3,3,1,4221,1,0,15,3,4,4
131,58,0,0,0,10,4,1,3,3,0,13872,0,0,13,1,2,10
132,44,0,2,1,23,2,1,3,2,1,2042,4,0,12,3,4,2
133,37,1,0,2,6,3,1,3,1,2,2073,4,1,22,3,3,2
134,32,0,0,1,1,4,1,3,1,0,2956,1,0,13,2,3,0
137,20,1,1,1,6,4,0,2,4,0,2926,1,1,18,5,3,0
138,34,0,0,1,6,1,0,3,3,0,4809,1,0,14,3,3,13
139,37,0,2,1,2,3,1,2,4,2,5163,5,0,14,2,4,0
140,59,0,2,2,2,3,0,2,4,1,18844,9,0,21,3,3,2
141,50,0,1,1,1,1,0,3,2,1,18172,3,1,19,1,2,3
142,25,1,0,0,5,3,1,2,3,0,5744,1,1,11,1,3,4
143,25,0,0,1,7,4,1,2,4,1,2889,1,0,11,2,3,2
144,22,0,0,1,15,2,0,3,4,0,2871,1,0,15,5,3,0
145,51,0,1,1,1,1,0,2,1,0,7484,3,0,20,1,2,12
147,34,1,1,1,7,1,1,1,3,0,6074,1,1,24,3,3,7
148,54,0,2,2,26,4,0,4,4,0,17328,2,1,12,3,3,3
150,24,0,0,1,18,2,1,3,3,1,2774,0,0,12,2,3,3
151,34,0,0,1,6,3,0,2,2,2,4505,6,0,15,3,3,0
152,37,0,0,0,3,3,1,3,4,0,7428,2,0,12,3,3,3
153,34,0,0,1,5,3,0,2,1,0,11631,2,0,12,6,3,10
154,36,0,1,0,11,2,0,3,4,1,9738,0,0,14,6,3,7
155,36,0,0,1,3,1,0,3,4,2,2835,5,0,22,2,3,0
158,43,0,1,0,26,3,1,3,4,1,16959,1,1,12,3,4,12
159,30,0,1,1,23,1,1,1,3,2,2613,1,0,25,2,2,7
160,33,0,2,0,22,3,1,3,2,1,6146,0,0,13,2,4,7
161,56,1,0,1,14,2,0,3,2,1,4963,9,1,18,2,3,4
162,51,0,0,1,6,1,1,3,3,0,19537,7,0,13,5,3,18
163,31,1,0,0,6,2,1,1,3,1,6172,4,1,18,3,2,7
164,26,0,0,1,6,3,0,2,2,1,2368,1,0,19,3,2,4
165,58,1,0,1,23,4,0,3,4,1,10312,1,0,12,3,2,10
167,19,1,0,0,22,4,1,3,3,0,1675,1,1,19,2,2,0
169,22,0,0,1,2,3,1,3,4,1,2523,0,0,14,2,3,1
170,49,0,0,1,20,3,0,3,1,1,6567,1,0,14,2,2,11
171,43,0,1,1,28,2,0,4,3,0,4739,4,0,12,2,3,2
174,50,0,1,0,12,3,0,3,4,0,9208,4,0,11,3,3,2
175,31,1,0,0,20,2,0,1,3,1,4559,3,1,11,2,3,2
176,41,0,0,0,9,3,1,3,3,2,8189,3,1,13,2,3,7
177,26,0,0,2,25,3,0,3,3,1,2942,1,0,23,3,3,7
178,36,0,0,1,6,2,1,3,2,2,4941,6,0,20,0,3,2
179,51,1,1,1,8,1,1,1,4,0,10650,2,0,15,2,3,2
182,39,0,0,0,4,4,0,2,3,1,5902,4,0,14,1,4,11
183,25,0,0,0,28,1,1,2,3,1,8639,2,0,18,3,3,2
184,30,0,0,2,9,3,1,3,4,1,6347,0,1,19,2,1,9
190,32,1,0,1,9,1,0,3,1,0,4200,7,0,22,2,4,4
192,45,0,0,1,29,3,1,3,4,0,3452,5,0,13,2,2,5
193,38,0,0,1,3,4,0,3,3,0,4317,3,1,20,2,3,2
194,30,0,0,1,18,1,0,3,3,0,2632,1,0,14,4,2,4
195,32,0,1,0,9,4,1,1,4,2,4668,0,0,17,2,4,7
197,30,0,0,1,5,4,0,3,1,2,3204,5,0,14,3,3,2
198,30,0,0,1,2,2,1,2,4,0,2720,0,0,13,3,3,3
199,41,0,1,1,10,4,1,2,1,2,17181,4,0,13,2,2,6
200,41,0,0,1,9,3,1,3,1,1,2238,2,0,21,2,3,0
201,19,0,0,1,3,2,0,3,2,0,1483,1,0,14,3,3,0
202,40,0,1,1,26,2,0,3,2,2,5605,1,0,11,2,3,7
204,35,0,0,0,1,3,1,3,2,1,7295,1,0,13,3,3,8
205,53,0,0,0,6,2,1,3,3,1,2306,2,1,20,3,1,7
206,45,0,0,1,9,2,1,3,2,2,2348,8,0,18,2,1,9
207,32,0,1,0,8,2,0,3,4,0,8998,1,0,14,2,3,8
208,29,0,2,1,1,4,1,3,3,1,4319,1,0,13,1,3,7
211,51,0,0,1,7,2,1,2,3,1,6132,2,0,17,2,3,0
214,58,0,0,1,9,2,0,2,2,1,3346,4,1,20,3,2,0
215,40,0,0,0,4,3,1,2,4,1,10855,7,0,11,2,2,11
216,34,0,1,0,2,3,0,3,3,1,2231,6,0,18,3,3,3
217,22,0,0,1,19,3,1,3,4,1,2323,1,0,24,6,3,2
218,27,0,2,1,9,4,1,3,2,2,2024,6,0,18,1,1,2
221,28,0,0,1,21,3,1,3,4,1,2713,1,0,11,2,1,2
223,57,0,0,1,24,3,1,4,4,2,9439,3,1,16,2,1,3
224,27,0,2,1,3,3,1,2,3,2,2566,1,1,15,2,2,1
226,50,0,0,1,11,3,0,3,2,0,19926,3,0,15,5,3,4
227,41,0,0,1,14,1,1,3,3,2,2451,4,0,12,2,3,8
228,30,0,0,0,5,2,0,3,4,1,9419,2,0,12,2,3,9
230,38,0,0,0,1,1,0,2,4,0,8686,4,0,22,2,4,3
231,32,0,0,1,6,3,1,3,3,0,3038,3,0,20,2,3,4
233,27,0,0,1,17,3,1,3,2,1,3058,0,1,16,3,2,2
235,19,1,1,0,1,3,0,1,1,0,2325,0,0,21,5,4,0
238,36,0,1,1,3,4,1,3,2,0,2088,4,0,12,3,2,7
239,30,0,2,1,9,3,1,3,1,2,3072,1,0,11,4,3,9
240,45,0,0,0,4,3,0,3,1,2,5006,4,1,11,3,4,4
241,56,0,0,1,8,3,0,3,1,2,4257,4,1,18,3,3,2
242,33,0,0,1,2,3,1,3,4,0,2500,0,0,14,2,4,1
243,19,1,0,1,2,2,1,2,4,0,1102,1,0,22,3,2,0
244,46,0,0,0,1,2,0,3,1,2,10453,1,0,25,2,3,13
245,38,0,0,1,9,3,0,3,4,0,2288,1,0,12,3,3,2
246,31,0,0,1,12,3,0,3,4,1,3929,8,1,23,0,3,2
247,34,0,0,1,27,4,0,3,2,0,2311,2,0,15,3,3,2
248,41,1,0,0,20,2,0,3,2,0,3140,1,1,22,5,2,3
249,50,0,0,1,1,3,1,2,3,1,3690,2,0,15,2,2,2
250,53,0,0,1,13,4,0,4,1,2,4450,1,0,11,3,3,2
252,33,0,0,1,14,4,0,3,2,1,2756,1,0,13,5,3,7
253,40,0,0,1,4,4,0,3,3,1,19033,1,0,14,2,3,8
254,55,0,0,1,14,3,1,4,2,0,18722,8,0,11,3,3,15
256,34,0,1,1,2,4,1,2,3,1,9547,1,0,17,2,2,9
258,51,0,0,1,3,4,0,3,2,0,13734,3,0,18,6,3,7
259,52,0,0,1,1,3,1,2,3,1,19999,0,0,14,5,3,18
260,27,0,0,1,9,4,0,3,2,0,2279,1,0,16,2,2,7
261,35,1,0,1,23,2,1,2,3,1,5916,3,1,13,1,3,0
262,43,0,2,1,7,4,1,4,4,2,2089,4,0,14,3,4,4
264,45,0,2,1,2,1,1,2,4,1,16792,9,0,23,1,3,8
267,37,0,0,1,21,2,1,4,1,1,3564,1,1,12,3,2,7
269,35,0,1,1,2,2,0,3,2,0,4425,5,0,11,5,3,2
270,42,0,2,1,21,3,0,3,3,2,5265,2,0,16,5,3,3
271,38,0,0,1,2,4,1,3,3,1,6553,9,0,14,3,3,0
273,38,0,0,1,29,4,1,3,4,1,6261,3,0,18,3,1,7
274,27,0,1,1,1,3,1,2,1,1,4298,5,0,19,1,3,2
275,49,0,2,1,18,4,1,3,4,2,6804,1,1,15,0,3,7
277,34,0,1,1,10,4,1,3,3,2,3815,1,1,17,4,4,3
281,40,0,0,1,19,3,1,3,4,1,2741,8,1,15,2,4,2
282,38,1,0,1,29,2,1,3,1,1,6673,7,1,19,2,3,0
283,29,1,0,0,27,2,0,3,4,1,7639,1,0,22,3,2,4
284,22,0,0,1,5,4,1,4,2,2,2328,1,1,16,2,2,2
286,36,0,1,1,18,2,0,3,4,0,2153,1,0,13,2,3,1
287,40,0,2,1,9,4,1,2,4,1,4876,9,0,14,5,1,2
288,46,0,0,1,1,4,1,3,1,2,9396,7,0,16,3,3,2
291,32,1,0,0,4,4,1,1,4,1,10400,1,0,11,2,2,8
292,30,0,2,1,1,3,1,2,3,0,8474,1,0,22,2,3,8
293,27,0,1,0,20,4,0,3,3,0,9981,1,0,14,2,3,7
296,51,0,0,1,8,2,1,2,2,1,12490,5,0,16,5,1,9
297,30,1,0,1,3,4,0,3,1,0,2657,5,1,11,5,3,2
298,41,0,0,0,6,4,0,3,4,0,13591,3,1,18,3,3,0
299,30,1,1,0,26,3,0,2,1,0,6696,5,0,15,5,2,3
300,29,1,0,1,1,3,1,3,3,0,2058,0,0,14,1,2,2
302,45,0,2,0,6,4,0,2,4,0,8865,6,0,12,2,3,7
303,54,0,0,0,3,4,0,3,1,1,5940,2,0,14,4,3,2
304,36,0,0,1,5,4,1,3,2,0,5914,8,0,16,3,4,11
305,33,0,0,1,4,3,0,2,2,1,2622,6,0,21,3,3,2
306,37,0,1,1,11,2,1,3,4,2,12185,1,1,14,1,3,8
307,38,0,0,0,3,1,1,3,3,2,10609,0,0,12,6,2,10
308,31,0,2,1,1,3,1,1,3,1,4345,0,0,12,2,3,4
309,59,0,0,1,3,3,1,2,4,1,2177,3,0,17,6,3,0
311,37,0,1,0,4,1,1,3,4,2,2793,4,0,17,2,3,8
312,29,0,1,0,1,2,0,3,4,1,7918,1,0,14,5,3,10
314,35,0,1,0,1,3,0,3,3,0,8789,1,0,14,3,4,7
315,29,1,0,1,18,3,1,2,4,0,2389,1,1,13,3,2,3
316,52,0,0,1,2,3,0,2,4,0,3212,7,0,15,3,2,2
319,42,0,0,1,4,3,1,3,4,1,19232,1,0,11,3,3,17
321,59,0,0,2,6,2,1,3,3,1,2267,8,0,17,2,2,2
323,50,0,0,0,1,4,0,3,4,2,19517,3,0,11,3,2,0
325,33,1,0,1,14,3,1,3,4,1,2436,5,1,13,2,1,4
327,43,0,0,0,16,4,0,3,4,1,16064,5,1,22,3,3,13
328,33,1,0,1,2,1,0,3,1,1,2707,7,0,20,3,4,7
329,52,0,2,0,2,1,1,2,3,0,19068,1,1,18,2,4,7
330,32,0,0,0,4,3,0,3,2,1,3931,2,0,11,5,3,3
331,32,1,0,1,1,4,1,2,3,0,3730,0,1,14,2,1,2
332,39,0,0,1,1,3,0,3,3,2,2232,7,0,14,1,3,2
333,32,0,2,0,26,3,1,3,4,1,4465,0,0,18,2,3,2
334,41,0,0,1,19,3,1,3,1,2,3072,2,0,16,2,2,0
335,40,0,0,1,24,1,1,3,4,2,3319,1,0,17,3,3,8
336,45,0,0,1,1,3,1,4,4,1,19202,0,0,11,2,3,0
337,31,0,1,1,3,2,1,3,3,2,13675,9,0,12,3,3,2
338,33,0,0,1,5,3,0,2,4,1,2911,1,0,13,2,2,2
339,34,0,0,1,2,4,1,2,1,1,5957,6,0,13,3,3,9
340,37,0,0,1,1,3,0,2,1,1,3920,2,0,14,2,2,1
341,45,0,1,1,7,1,1,4,3,1,6434,4,0,17,1,3,2
342,37,1,1,1,10,1,1,3,3,2,10048,6,0,11,5,3,0
343,39,0,1,1,2,3,0,3,3,0,10938,0,0,25,1,3,6
346,29,0,0,1,15,3,1,3,4,0,2340,1,0,19,1,3,5
347,42,0,0,1,17,4,0,4,1,0,6545,3,1,13,1,3,2
349,29,0,0,0,20,4,1,3,4,2,6931,2,0,14,2,3,2
350,25,0,0,1,1,1,0,3,3,1,4898,0,0,12,3,3,2
351,42,0,0,1,2,4,0,2,1,2,2593,0,1,11,4,3,6
352,40,0,0,1,2,1,1,3,3,2,19436,0,0,19,5,3,7
353,51,0,0,1,1,3,1,3,4,1,2723,1,0,11,0,2,0
355,31,1,1,1,29,3,1,2,2,0,3479,0,0,11,2,4,4
359,32,0,1,1,7,2,1,4,2,1,2794,1,0,20,3,1,1
361,38,0,2,0,2,4,1,2,4,1,5249,3,0,18,0,3,7
362,32,0,0,1,2,4,1,2,1,0,2176,4,0,13,5,3,2
363,46,0,0,0,2,3,0,1,2,1,16872,3,1,12,2,2,7
364,28,1,0,1,2,1,1,3,3,0,3485,2,0,11,5,1,0
366,29,0,0,0,2,1,1,2,2,1,6644,2,0,19,2,3,0
367,31,0,0,1,23,2,1,2,4,1,5582,0,0,21,2,3,0
369,25,0,2,1,5,2,1,4,1,2,4000,1,0,12,2,3,3
372,45,0,0,1,20,3,1,3,4,1,13496,0,1,14,2,3,7
373,36,0,0,1,6,4,1,3,4,1,3210,0,0,11,4,3,13
374,55,0,0,1,1,4,1,3,1,0,19045,0,1,14,2,3,10
376,47,1,2,1,29,1,1,3,2,1,11849,1,1,12,2,2,7
377,28,0,0,1,9,4,1,3,4,1,2070,1,0,23,3,2,2
378,37,0,0,0,6,3,1,3,4,1,6502,4,0,14,5,4,4
379,21,0,0,1,3,4,1,2,3,0,3230,1,0,17,4,4,2
380,37,0,2,1,1,1,0,3,4,2,13603,2,1,18,2,3,2
381,35,0,0,1,22,2,0,4,2,2,11996,7,0,18,6,2,7
382,38,0,0,0,7,1,0,4,1,2,5605,1,1,24,3,3,0
384,26,0,1,1,1,3,0,3,2,2,6397,1,0,20,6,1,5
385,50,0,0,1,4,1,1,3,2,2,19144,3,0,14,4,2,4
386,53,0,0,1,3,3,1,3,3,1,17584,3,1,16,5,2,3
387,42,0,0,0,1,2,1,3,3,1,4907,1,0,25,3,3,16
388,29,0,1,0,2,2,1,3,4,0,4554,1,0,18,3,2,7
389,55,0,0,1,20,2,1,3,4,1,5415,3,1,19,4,3,7
390,26,0,1,1,11,1,1,3,1,1,4741,1,1,13,3,3,3
391,37,0,0,1,1,4,0,3,4,0,2115,1,0,12,3,3,12
392,44,1,1,1,24,4,1,3,3,2,3161,3,1,22,0,1,0
393,38,0,0,1,23,4,1,3,4,2,5745,9,0,14,2,3,2
394,26,1,0,1,16,1,1,3,2,2,2373,2,1,13,2,3,2
395,28,0,0,1,8,4,0,3,4,0,3310,1,0,21,3,3,3
396,49,0,1,1,10,3,0,3,1,0,18665,9,1,11,4,3,2
397,36,0,0,1,3,3,1,3,2,0,4485,4,0,12,2,3,0
399,31,0,1,0,5,4,0,3,2,2,2789,1,0,11,5,2,2
401,26,1,0,0,4,4,1,2,4,0,5828,1,1,12,0,3,7
403,37,0,1,1,9,2,1,3,4,1,2326,1,1,12,3,2,2
404,42,0,1,0,26,3,0,3,2,1,13525,5,0,14,2,4,4
405,18,1,0,1,3,3,1,3,3,0,1420,1,0,13,2,3,0
406,35,0,0,0,16,3,1,3,2,1,8020,0,0,15,3,2,9
407,36,0,1,1,18,3,1,4,4,1,3688,4,0,18,2,3,0
408,51,0,0,1,2,4,1,1,2,2,5482,5,0,18,3,3,1
410,41,0,0,0,2,4,1,3,2,0,16015,1,0,19,2,3,10
411,18,0,0,0,10,4,0,2,3,0,1200,1,0,12,2,3,0
412,28,0,0,1,16,2,1,4,1,0,5661,0,0,19,2,3,3
416,31,0,0,0,7,2,1,4,4,1,6929,4,0,11,3,2,7
417,39,0,0,1,1,3,1,4,4,2,9613,0,0,17,5,2,10
419,36,0,2,1,24,2,0,3,2,1,5674,7,0,15,3,3,8
420,32,0,0,0,7,4,1,2,3,1,5484,1,0,14,3,2,8
421,38,0,0,1,25,1,0,2,2,1,12061,3,0,17,2,3,8
422,58,0,2,1,1,4,1,1,3,2,5660,2,1,13,2,3,3
423,31,0,0,1,5,3,1,3,4,1,4821,0,1,12,4,3,2
424,31,0,0,2,2,1,1,2,1,1,6410,3,0,12,1,3,2
425,45,0,1,1,7,1,1,3,1,2,5210,1,0,18,2,3,9
426,31,0,0,1,2,3,1,3,4,2,2695,0,1,18,2,1,2
428,33,0,1,1,5,4,0,3,2,1,11878,6,0,11,2,3,6
429,39,0,0,1,10,3,1,3,1,1,17068,1,1,14,3,3,9
430,43,0,1,1,10,3,0,3,4,0,2455,0,0,19,5,3,7
431,49,0,0,1,1,3,0,2,3,0,13964,7,1,12,2,3,1
433,52,1,0,1,8,3,1,2,2,1,4941,2,0,15,3,2,2
434,27,0,0,1,5,3,0,3,2,0,2478,1,1,12,2,2,3
436,32,0,0,0,8,3,0,2,2,1,5228,1,1,11,2,3,12
437,27,0,0,0,2,4,1,3,3,0,4478,1,1,11,3,3,4
438,31,0,0,0,7,4,1,3,4,2,7547,4,0,12,3,3,7
439,32,0,0,1,2,1,0,4,4,0,5055,7,0,16,0,2,7
440,28,1,0,1,2,1,1,1,4,1,3464,5,1,13,4,2,2
441,30,0,0,1,28,4,0,3,4,1,5775,1,0,13,2,3,8
442,31,0,1,1,7,3,0,2,3,1,8943,1,0,24,2,3,9
444,39,0,1,1,7,3,1,2,4,1,19272,1,0,15,2,3,9
445,39,1,0,0,3,4,0,3,3,1,5238,4,1,18,3,2,0
446,33,0,1,0,10,2,1,2,4,0,4682,3,0,14,6,2,7
447,47,0,0,1,5,4,1,3,3,1,18300,4,0,11,2,3,2
448,43,0,1,1,10,3,0,2,3,2,5257,1,0,11,3,4,7
449,27,0,2,0,1,3,1,3,2,1,6349,0,1,13,0,3,4
450,54,0,1,1,20,4,0,3,3,0,4869,3,0,12,4,2,3
451,43,0,0,1,7,3,0,3,1,1,9985,8,0,16,1,2,0
452,45,0,0,1,8,4,1,3,4,1,3697,9,0,14,3,3,9
453,40,0,0,0,1,2,1,1,4,1,7457,2,1,22,2,2,3
454,29,1,0,1,8,2,1,1,1,1,2119,1,1,11,4,2,7
455,29,0,0,1,9,2,1,2,4,0,3983,0,0,17,2,3,2
456,30,0,0,0,5,4,0,2,3,2,6118,1,0,13,2,3,9
458,27,0,0,0,8,2,0,3,2,1,6214,1,0,18,3,3,7
460,37,0,0,1,5,4,1,3,4,2,6347,7,0,16,2,2,2
461,38,0,0,1,15,3,1,2,4,2,11510,0,1,14,3,3,10
462,31,0,0,1,7,3,0,3,4,0,7143,1,1,14,2,2,9
463,29,0,0,0,10,4,0,2,2,2,8268,1,1,14,2,3,7
464,35,0,0,1,5,3,1,3,2,0,8095,0,0,13,5,3,6
465,23,0,0,1,26,3,1,3,4,2,2904,1,0,12,2,2,2
466,41,0,0,1,6,4,1,2,2,0,6032,6,1,15,3,3,4
467,47,0,1,0,4,2,1,3,3,0,2976,3,0,19,3,3,0
468,42,0,0,1,23,1,0,3,4,0,15992,2,0,14,2,3,0
469,29,0,2,0,2,4,1,3,3,1,4649,1,0,14,3,2,3
470,42,0,0,2,2,3,1,3,3,2,2696,0,1,11,5,3,2
471,32,0,0,1,2,3,0,3,2,1,2370,1,0,13,4,3,0
473,48,0,0,0,29,1,0,3,3,1,12504,3,0,21,3,1,0
474,37,0,0,1,6,3,1,4,1,2,5974,4,1,13,2,3,7
475,30,0,2,0,25,4,0,3,3,1,4736,7,1,12,2,4,2
476,26,0,0,0,1,3,1,3,3,1,5296,1,0,17,3,3,7
477,42,0,0,1,2,1,1,2,4,0,6781,3,0,23,6,3,0
478,21,1,1,0,1,1,0,2,2,0,2174,1,1,11,3,3,2
479,36,0,2,0,1,4,0,3,4,0,6653,4,0,15,6,3,0
481,36,0,1,0,3,1,1,2,4,1,9699,4,0,11,2,3,9
482,57,0,0,1,1,4,1,3,3,1,6755,2,0,11,2,3,2
483,40,0,0,1,10,4,0,4,3,1,2213,3,1,13,3,3,7
484,21,0,2,0,9,1,1,3,4,0,2610,1,0,24,3,2,2
485,33,1,0,0,5,4,0,3,3,0,2851,1,1,13,2,3,0
486,37,0,0,1,10,3,0,3,1,1,3452,6,0,20,3,3,4
487,46,0,2,1,7,3,0,3,3,1,5258,2,0,14,2,4,0
488,41,1,1,0,4,1,1,3,2,0,9355,1,0,18,5,3,7
491,50,0,0,1,10,4,1,2,4,0,10496,6,0,15,2,3,3
492,40,1,0,0,22,3,1,2,3,1,6380,2,1,12,6,3,4
493,31,0,0,1,9,3,1,2,2,0,2657,0,1,16,5,3,2
494,21,1,0,0,12,3,0,4,2,0,2716,1,0,15,0,3,0
495,29,0,0,1,23,4,1,3,4,0,2201,9,0,16,4,3,2
496,35,0,0,1,9,3,1,2,2,0,6540,9,0,19,5,3,1
497,27,0,0,1,1,4,1,3,2,2,3816,1,0,11,2,3,2
498,28,0,0,0,9,2,1,3,4,0,5253,1,0,16,1,3,5
499,49,0,0,1,7,2,1,2,3,0,10965,8,0,24,2,3,2
500,51,0,0,0,14,3,0,3,4,1,4936,4,0,11,2,2,7
501,36,0,0,1,2,4,0,3,3,1,2543,4,0,13,3,3,2
502,34,1,2,0,19,1,1,4,4,0,5304,8,1,13,3,2,2
505,55,0,0,1,2,3,0,3,4,0,16659,2,1,13,2,3,4
507,24,0,0,0,10,4,0,3,3,2,4260,1,1,12,2,4,2
508,30,0,0,0,2,3,1,3,2,1,2476,1,0,18,3,3,0
510,26,1,1,1,3,3,1,3,1,0,3102,0,0,22,2,3,4
511,22,0,0,1,11,1,0,3,2,1,2244,1,0,13,1,3,1
513,36,0,0,0,2,2,1,2,3,1,7596,1,0,13,2,3,9
514,30,1,1,1,4,3,1,3,4,0,2285,9,1,23,4,3,0
515,37,0,0,1,14,4,0,3,1,2,3034,1,0,12,2,2,7
516,40,0,0,0,2,4,0,3,2,2,5715,7,0,12,5,3,4
517,42,0,0,1,1,2,0,3,1,2,2576,3,0,16,5,3,2
518,37,0,0,1,10,3,1,3,2,0,4197,2,1,12,2,2,0
520,43,0,0,1,12,1,1,2,2,2,14336,1,0,11,3,3,10
521,40,0,0,1,2,2,0,2,3,1,3448,6,0,22,3,3,0
522,54,0,0,1,5,1,1,3,1,1,19406,4,0,11,4,2,2
523,34,0,2,0,4,3,0,3,3,1,6538,9,0,15,3,3,2
524,31,0,0,1,7,2,0,3,1,1,4306,1,0,12,5,1,10
525,43,0,1,1,21,4,1,3,4,1,2258,7,0,20,1,3,2
526,43,0,0,1,8,3,0,3,3,2,4522,4,1,14,3,3,2
527,25,0,0,0,4,2,0,2,4,0,4487,1,1,11,3,3,4
529,37,0,2,1,25,2,0,3,3,1,4449,3,1,15,2,3,11
530,31,0,0,1,1,4,1,2,1,1,2218,1,0,12,3,3,2
531,39,0,1,1,1,2,1,3,3,2,19197,1,1,14,3,3,8
532,56,0,1,0,6,3,0,4,1,1,13212,9,0,11,0,2,7
533,30,0,0,0,12,2,0,3,3,0,6577,0,0,11,6,3,4
534,41,0,0,0,1,2,1,4,1,1,8392,1,0,16,2,3,7
536,28,0,0,1,17,3,1,3,1,2,4558,1,0,12,2,3,0
538,25,1,0,1,3,1,1,3,1,1,4031,5,0,13,5,3,2
543,52,0,0,1,3,4,1,2,3,1,7969,2,1,14,4,3,4
544,45,0,0,1,10,1,1,3,4,1,2654,3,0,21,3,2,2
546,52,0,0,1,4,4,0,3,4,1,16555,2,0,13,2,1,2
547,42,0,1,1,29,1,0,3,3,2,4556,2,0,11,3,3,4
548,30,0,0,1,2,3,0,1,4,0,6091,2,0,20,2,3,4
549,60,0,0,1,7,1,0,3,1,1,19566,5,0,11,5,1,8
550,46,0,0,1,18,3,0,3,3,2,4810,2,0,14,5,2,7
551,42,0,1,1,28,4,0,2,4,1,4523,0,0,11,4,4,5
554,24,1,0,0,1,1,0,3,2,0,3202,1,1,16,4,3,3
555,34,1,1,0,6,4,0,1,3,2,2351,0,0,16,3,2,2
556,38,0,1,1,2,4,1,3,4,1,1702,1,1,23,3,3,0
558,40,0,0,0,2,3,0,3,3,1,18041,0,0,14,2,3,15
560,26,0,0,1,23,1,0,3,4,2,2886,1,0,22,3,1,2
562,30,0,2,1,3,3,1,3,4,1,2097,4,0,15,3,1,3
564,29,0,0,1,3,2,1,2,3,1,11935,1,0,18,2,3,2
565,29,1,0,1,25,3,0,2,2,1,2546,5,0,16,2,4,2
566,19,1,0,2,2,1,1,2,4,0,2564,1,0,12,3,4,0
567,30,0,2,0,22,3,0,3,1,1,8412,0,0,11,3,3,8
568,57,0,0,0,29,1,1,2,4,2,14118,3,0,12,3,2,0
569,50,0,0,1,29,2,1,2,3,1,17046,0,0,15,2,3,10
571,30,0,2,1,2,3,0,3,4,0,2564,0,0,14,2,2,7
573,60,0,1,0,28,3,0,2,1,1,10266,4,0,19,5,4,13
574,47,0,0,1,2,1,0,3,4,2,5070,5,0,13,2,3,0
575,46,0,0,1,2,1,1,3,3,1,17861,6,0,13,2,1,2
577,35,0,0,1,22,4,1,1,3,0,4230,0,0,15,2,3,4
578,54,0,0,1,8,3,0,3,3,0,3780,7,0,11,3,3,0
579,34,0,0,1,2,4,1,2,3,2,2768,3,0,12,3,3,3
580,46,0,0,0,10,3,0,2,4,1,9071,2,1,19,3,3,2
581,31,0,0,1,9,3,1,3,2,2,10648,1,0,25,6,4,8
582,33,1,0,1,15,2,1,3,3,1,13610,7,1,12,2,4,6
584,33,1,0,1,10,1,1,1,4,2,3408,7,0,13,2,3,3
585,30,0,0,0,7,4,1,3,2,0,2983,0,0,14,3,3,2
586,35,0,0,1,16,4,1,3,3,1,7632,4,1,12,2,3,7
587,31,1,1,1,20,1,1,3,3,1,9824,3,0,12,2,3,0
590,34,1,1,2,23,2,0,3,1,2,9950,9,1,15,2,3,2
591,42,0,1,1,5,2,1,3,3,1,2093,4,0,17,4,3,2
592,36,0,2,0,10,2,1,3,4,0,9980,1,0,14,3,2,3
593,22,1,1,1,4,3,1,2,3,0,3894,5,0,16,3,3,2
595,48,0,0,0,2,2,0,3,4,1,4051,2,0,14,2,3,7
597,55,0,0,0,18,1,0,3,2,0,16835,3,0,23,2,3,9
599,41,0,2,0,10,4,1,3,4,0,6230,7,0,14,3,3,3
600,35,0,0,0,1,2,1,3,3,1,4717,9,0,11,2,3,9
601,40,0,0,1,6,2,0,3,3,0,13237,7,0,15,3,3,6
602,39,0,1,1,8,3,0,3,3,1,3755,1,0,11,3,3,3
604,31,0,0,0,2,2,1,3,4,0,6582,4,1,13,2,4,5
605,42,0,0,1,24,4,1,3,1,1,7406,1,1,21,5,2,9
606,45,0,0,0,2,4,1,3,2,1,4805,0,0,19,3,4,7
608,26,1,1,2,17,2,0,3,3,2,2741,0,1,11,2,2,7
611,29,0,0,1,19,4,1,3,4,2,4262,4,0,12,2,4,2
612,33,0,0,1,1,1,0,4,3,2,16184,4,0,19,2,3,1
613,31,0,0,0,7,3,1,2,4,2,11557,9,0,21,3,2,4
614,18,1,1,0,5,2,1,3,2,0,1878,1,1,14,3,3,0
615,40,0,2,0,28,3,1,1,1,2,10932,3,0,15,2,3,0
616,41,0,2,1,2,1,0,2,3,0,6811,2,1,17,3,3,7
618,26,0,0,0,29,1,1,3,3,2,4306,5,0,12,5,3,0
620,35,0,0,0,1,1,0,3,3,0,4859,1,0,16,3,3,4
621,34,0,0,0,21,4,1,4,4,0,5337,1,0,12,3,3,7
622,26,1,0,1,24,3,1,1,4,0,2340,1,1,18,3,1,0
623,37,0,0,1,1,2,0,3,4,0,7491,4,0,17,3,4,5
624,46,0,1,1,18,1,0,3,3,1,10527,5,0,11,3,2,2
625,41,0,0,0,2,2,0,3,1,1,16595,7,0,16,2,3,16
626,37,0,2,0,9,1,1,3,2,2,8834,1,0,13,6,3,5
630,52,0,0,1,6,4,1,3,1,2,5577,3,1,12,3,3,9
631,32,1,2,0,11,4,1,4,3,1,4707,8,0,12,2,3,2
632,24,0,1,0,24,4,1,3,4,1,2400,0,0,13,3,3,2
634,38,0,0,1,10,3,0,3,3,1,9824,3,0,19,4,3,0
635,37,0,0,1,1,2,0,3,2,1,6447,6,0,12,2,2,5
638,49,0,0,1,18,4,1,2,3,2,19502,1,1,17,5,3,9
639,24,0,0,1,23,2,1,4,4,1,2725,1,1,11,3,3,5
641,26,0,0,0,28,1,1,3,2,1,6272,1,0,20,5,4,3
643,24,0,0,1,17,4,1,2,2,1,2127,1,0,21,2,3,0
644,50,0,1,2,3,1,1,3,2,1,18200,1,0,11,2,3,5
645,25,0,0,0,13,2,1,3,3,1,2096,1,0,11,1,3,4
647,24,1,1,1,7,1,0,3,3,1,2886,1,1,16,4,3,3
648,30,1,1,0,12,2,1,2,1,1,2033,1,0,18,2,4,0
649,34,0,0,1,1,2,1,2,4,1,3622,1,1,13,3,3,5
650,31,1,0,0,13,2,1,3,1,2,4233,2,0,17,2,1,1
652,35,0,0,1,25,1,1,2,4,0,3681,4,0,14,3,3,2
653,31,0,0,0,6,1,1,4,4,2,5460,4,0,22,4,4,7
655,27,0,0,1,6,1,0,2,3,2,2187,0,0,12,5,2,3
656,37,0,0,0,2,4,1,3,3,1,9602,4,1,11,3,2,0
657,20,0,0,1,1,4,0,2,2,0,2836,1,0,13,0,4,0
659,42,0,0,1,2,3,0,3,4,1,4089,1,0,13,4,3,2
661,43,0,0,1,6,2,1,2,4,2,16627,4,1,14,3,2,0
662,38,0,0,1,1,3,0,3,1,0,2619,3,0,17,3,2,0
663,43,0,1,1,9,4,1,3,3,2,5679,3,1,13,3,3,7
664,48,0,0,1,1,4,0,2,1,1,15402,7,0,11,3,1,2
665,44,0,0,2,1,1,0,2,3,0,5985,4,0,11,1,4,2
666,34,0,0,0,14,3,0,3,3,2,2579,1,1,18,3,3,2
667,27,1,0,0,2,3,1,3,1,2,3041,0,0,11,3,3,3
669,21,0,0,0,22,3,1,3,3,0,3447,1,0,11,2,3,2
671,44,0,0,1,3,4,1,3,4,1,19513,4,1,12,2,4,2
675,22,0,0,1,6,1,1,3,3,1,2773,0,0,20,3,3,2
677,33,0,0,0,8,3,1,3,3,2,7104,0,0,12,3,3,0
679,32,0,0,1,9,1,0,3,4,1,6322,1,1,12,2,2,4
680,30,0,1,1,3,3,0,3,3,2,2083,1,0,20,2,3,0
682,53,0,0,0,1,4,0,3,1,0,8381,7,0,20,2,4,7
683,34,0,0,1,1,2,1,3,4,1,2691,1,0,12,4,2,9
684,45,1,1,0,26,1,0,3,1,1,4286,2,0,14,4,3,1
686,26,0,0,1,6,3,0,3,4,1,2659,1,1,13,2,3,2
689,37,0,0,1,3,3,1,3,3,1,9434,1,0,15,2,3,7
690,29,0,0,0,3,2,0,3,3,1,5561,1,0,14,5,2,0
691,35,0,0,1,6,2,1,1,4,0,6646,1,0,13,3,3,11
692,33,0,1,1,6,3,1,3,4,2,7725,3,0,23,2,1,11
698,54,0,0,2,19,3,1,3,2,1,10725,2,0,15,1,4,7
699,36,0,0,1,9,2,1,2,2,2,8847,2,1,11,2,3,2
700,27,0,0,1,3,1,1,2,4,0,2045,0,0,13,0,3,2
701,20,1,0,1,10,4,1,3,3,0,1009,1,1,11,5,3,0
702,33,1,1,1,3,1,1,3,1,0,3348,1,1,11,3,3,8
704,35,0,2,1,3,3,1,2,3,1,1281,1,0,18,3,3,0
705,23,0,0,1,4,1,1,4,1,1,2819,2,0,16,3,4,2
707,25,0,0,0,8,4,1,4,2,1,4851,0,0,22,4,3,2
709,38,0,0,0,7,4,0,2,4,0,4028,0,0,20,2,3,7
710,29,0,1,1,1,2,1,1,4,2,2720,1,0,18,5,3,7
712,48,0,0,0,2,2,1,4,2,1,8120,3,0,12,3,3,2
714,27,0,1,0,3,4,0,4,4,2,4647,1,1,20,3,3,5
715,37,0,0,1,10,4,1,4,4,0,4680,3,0,17,2,3,0
716,50,0,0,1,28,4,1,4,3,1,3221,1,1,11,3,3,8
717,34,0,0,1,9,4,0,2,2,0,8621,1,0,14,3,4,7
720,24,1,0,0,3,1,0,3,3,0,4577,9,0,14,3,3,2
721,39,0,0,1,2,4,0,2,3,0,4553,1,0,11,4,3,7
722,32,0,0,0,10,4,1,3,4,0,5396,1,0,12,2,2,7
723,50,1,1,0,8,2,1,3,3,1,6796,3,1,14,4,3,3
724,38,0,0,1,1,2,0,4,4,0,7625,0,0,13,4,2,7
725,27,0,0,1,1,3,0,3,1,1,7412,1,0,11,3,3,7
727,32,0,0,1,3,3,0,3,4,0,11159,3,0,15,6,3,7
728,47,0,0,0,14,4,1,3,1,0,4960,2,0,12,2,3,7
729,40,0,1,0,5,4,1,2,1,1,10475,5,1,21,2,3,13
730,53,0,0,1,7,3,1,4,3,1,14814,3,0,19,3,3,1
731,41,0,0,2,10,2,1,2,4,2,19141,3,0,15,2,2,6
732,60,0,0,0,16,1,1,3,1,0,5405,8,0,14,1,3,2
733,27,0,1,1,10,4,1,3,1,2,8793,1,0,21,4,2,7
734,41,0,0,2,1,4,1,2,3,1,19189,1,0,12,3,3,7
738,50,0,0,0,8,4,1,3,2,1,3875,7,0,15,2,3,2
741,28,1,0,1,1,1,0,1,2,0,2216,7,1,13,4,3,7
742,36,0,2,1,8,1,0,4,1,1,11713,9,0,14,2,3,7
743,38,0,0,1,1,3,0,3,3,0,7861,4,1,14,4,4,0
744,44,0,2,1,24,1,1,1,3,0,3708,2,0,14,5,3,2
746,47,0,1,0,3,4,0,3,3,2,13770,9,1,12,2,2,2
747,30,0,0,0,27,3,1,3,4,2,5304,7,0,23,2,2,7
749,29,0,0,0,10,3,1,3,3,0,2642,1,0,11,6,3,0
752,42,1,1,1,19,3,1,4,3,2,2759,6,1,12,2,3,2
754,43,0,1,0,15,4,1,2,4,1,6804,3,0,18,5,3,2
757,34,0,0,1,8,2,0,3,3,0,6142,3,0,11,2,3,1
758,23,0,0,1,9,2,1,3,1,1,2500,1,0,14,2,4,3
760,39,0,0,2,3,3,0,4,2,1,6389,9,0,15,3,1,3
762,56,0,0,1,9,3,1,3,4,1,11103,7,0,11,1,2,7
763,40,0,0,1,2,4,0,2,4,0,2342,0,1,20,2,2,2
764,27,0,0,1,7,4,0,2,1,0,6811,8,0,19,2,1,6
766,29,0,0,0,10,4,1,3,2,2,2297,1,0,14,2,3,2
769,53,0,0,1,6,4,1,3,4,0,2450,2,0,17,4,3,2
771,35,0,2,1,2,4,0,3,1,2,5093,2,0,11,2,4,0
772,32,0,1,1,24,1,1,3,4,1,5309,1,0,15,2,3,8
773,38,0,0,1,2,4,1,3,3,1,3057,6,1,13,0,1,0
775,34,0,0,1,8,2,0,3,1,2,5121,3,0,14,3,3,0
776,52,0,0,0,3,3,1,2,1,1,16856,1,0,11,3,4,6
780,33,1,0,1,1,4,1,3,4,0,2686,1,1,13,2,2,9
781,25,0,0,0,26,3,0,3,4,0,6180,1,0,23,5,2,5
783,45,0,0,0,2,2,1,1,3,0,6632,0,0,13,3,3,7
784,23,0,0,1,10,1,1,4,3,0,3505,1,0,18,3,3,2
785,47,1,1,0,27,2,0,4,3,0,6397,4,1,12,2,3,4
786,34,0,0,0,2,4,1,3,4,0,6274,1,0,22,5,3,5
787,55,1,0,1,2,4,1,3,1,1,19859,5,1,13,2,3,2
789,36,0,2,0,8,1,1,2,1,0,7587,1,0,15,1,3,7
791,52,0,2,1,19,4,1,3,4,1,4258,0,0,18,3,3,3
792,26,0,1,1,1,1,0,1,4,2,4364,3,0,14,2,3,2
793,29,0,0,1,27,2,0,3,3,1,4335,4,0,12,3,2,7
796,26,1,0,0,8,4,1,2,1,0,5326,6,0,17,2,2,3
797,34,0,0,1,1,2,0,4,4,0,3280,2,0,16,2,3,2
799,54,0,0,1,19,4,0,3,1,2,5485,9,1,11,4,3,3
800,27,0,1,0,8,3,1,3,4,1,4342,0,0,19,3,3,2
802,37,0,0,1,10,4,0,3,1,2,2782,0,1,13,3,2,3
803,38,0,1,1,2,1,0,4,1,0,5980,6,1,12,2,3,7
804,34,0,0,1,2,3,0,2,1,0,4381,1,0,11,3,3,5
805,35,0,0,0,8,1,0,3,4,1,2572,1,0,16,1,2,2
806,30,0,0,1,1,4,1,1,3,1,3833,3,0,21,2,3,2
807,40,0,1,1,2,3,0,4,2,1,4244,1,0,24,2,3,7
808,34,0,0,0,8,3,0,3,1,1,6500,5,0,17,1,3,2
809,42,0,1,1,8,2,1,3,4,2,18430,1,0,13,4,2,7
811,23,1,0,1,6,3,1,4,1,1,1601,1,1,21,2,3,0
812,24,0,2,1,9,3,1,2,2,2,2694,1,0,11,4,3,0
813,52,0,0,1,11,4,0,3,3,1,3149,8,0,20,3,3,2
815,50,0,0,1,2,3,1,3,3,1,17639,5,0,16,3,3,3
816,29,1,0,1,1,2,0,2,1,1,2319,1,1,11,1,3,0
817,33,0,0,1,7,3,1,3,3,1,11691,0,0,11,3,4,9
819,33,1,0,0,16,1,0,3,1,0,5324,5,0,15,3,3,2
820,47,0,0,1,2,3,0,3,4,1,16752,1,1,11,3,2,14
823,36,0,0,1,1,3,0,3,2,1,5228,0,0,15,2,3,7
824,29,0,0,1,23,3,1,4,3,1,2700,1,0,24,3,3,7
825,58,1,0,1,2,4,1,3,2,0,19246,7,1,12,2,3,15
826,35,0,0,1,1,4,0,4,3,0,2506,3,0,13,0,3,2
827,42,0,0,1,1,4,0,2,4,1,6062,9,1,13,4,3,3
828,28,1,0,1,2,3,1,3,3,0,4382,6,0,17,3,2,2
829,36,0,0,2,13,3,1,3,2,1,2143,4,0,13,2,3,2
830,32,0,0,1,4,3,0,2,3,1,6162,1,0,12,3,3,13
832,40,0,1,1,16,1,1,2,3,0,5094,6,0,14,6,3,0
833,30,0,0,1,2,3,0,2,4,0,6877,5,1,24,4,2,0
834,45,0,0,1,2,2,0,2,3,0,2274,1,0,14,3,3,0
836,42,0,0,1,29,2,1,3,2,1,4434,1,0,13,3,2,8
837,38,0,1,1,12,1,1,2,1,2,6288,2,0,15,3,2,3
838,34,0,1,1,16,3,0,2,4,0,2553,1,0,16,3,3,2
840,49,1,0,0,11,3,0,3,4,1,7654,1,0,18,3,4,8
842,55,1,0,0,2,3,1,3,4,0,5160,4,0,16,3,2,7
843,43,0,0,1,14,2,1,3,1,1,17159,6,0,24,3,3,1
844,27,0,0,1,5,3,1,2,4,2,12808,1,1,16,3,3,8
845,35,0,0,1,7,3,1,3,3,0,10221,3,0,21,3,4,5
846,28,0,0,0,2,2,0,3,2,1,4779,1,1,20,2,3,7
847,34,0,0,2,3,3,1,3,4,1,3737,0,0,19,1,1,2
848,26,1,1,1,5,3,0,2,3,1,2366,1,1,14,2,3,7
850,27,0,2,1,3,4,1,3,4,1,1706,1,0,11,6,2,0
851,51,0,0,0,26,1,0,3,3,1,16307,2,0,14,2,2,6
852,44,0,0,1,4,4,1,3,2,0,5933,9,0,12,2,2,2
854,25,0,0,1,2,1,1,4,1,0,3424,7,0,13,3,2,3
855,33,0,0,0,1,1,1,4,1,2,4037,1,0,22,5,3,8
856,35,0,0,1,27,3,0,2,1,0,2559,1,0,11,3,2,5
857,36,0,0,0,1,2,1,3,4,1,6201,1,1,14,1,2,14
859,32,0,0,0,13,2,1,3,4,2,4403,2,0,11,3,2,2
861,30,0,1,1,5,2,1,2,4,2,3761,9,0,12,3,2,4
862,53,0,0,0,7,1,0,2,4,1,10934,7,1,18,3,3,2
864,45,0,0,0,9,4,1,3,1,2,10761,4,1,12,2,3,4
865,32,0,0,1,8,3,0,4,3,1,5175,5,0,12,3,2,3
867,52,0,1,1,25,3,0,2,4,1,13826,3,0,22,3,3,8
868,37,0,0,0,16,4,1,2,3,2,6334,4,0,19,2,3,0
869,28,0,0,2,8,2,1,2,4,2,4936,1,0,13,6,3,1
872,22,0,0,1,1,4,1,2,4,1,4775,6,0,22,2,1,2
874,44,0,0,1,8,1,1,4,4,1,2818,2,1,24,2,2,2
875,42,0,1,1,2,2,1,3,4,0,2515,5,1,14,2,3,1
878,36,0,0,2,8,1,1,2,1,1,2342,0,0,21,3,3,4
879,25,0,0,0,3,3,1,3,1,1,4194,1,1,18,3,3,3
880,35,0,0,1,9,4,0,2,3,1,10685,1,1,20,2,3,14
881,35,1,1,1,25,4,0,3,2,2,2022,1,1,19,3,2,2
882,32,0,2,1,1,4,1,3,4,2,2314,0,0,12,2,3,0
885,25,0,0,0,4,3,1,2,1,1,4256,1,0,12,1,4,2
887,49,0,0,1,1,3,0,3,1,1,3580,2,0,16,2,3,2
888,24,0,2,1,4,1,1,2,4,1,3162,0,0,17,2,2,2
889,32,0,1,0,5,2,1,3,2,1,6524,1,0,14,3,3,8
893,38,0,0,0,9,2,1,2,2,1,2899,0,0,19,3,3,2
894,42,0,0,1,3,3,0,4,4,1,5231,2,1,13,1,2,3
895,31,0,0,1,11,4,1,3,4,1,2356,3,1,19,2,3,4
896,29,1,0,0,1,2,0,2,3,2,2800,6,1,19,3,3,2
897,53,0,0,0,8,1,1,3,4,1,11836,5,0,14,3,3,0
899,35,0,0,1,25,4,1,2,2,1,10903,3,0,16,2,3,10
900,37,0,1,0,21,3,0,3,4,1,2973,5,0,15,3,3,4
901,53,0,0,1,23,4,0,3,4,0,14275,6,0,18,0,3,9
902,43,0,1,1,1,4,0,3,4,1,5562,4,0,13,2,2,2
903,47,0,0,0,2,3,0,3,4,1,4537,0,1,22,2,3,6
904,37,0,2,0,19,1,1,3,2,0,7642,1,1,13,2,3,0
905,50,0,2,1,2,1,1,3,1,2,17924,1,0,11,3,3,6
909,39,0,0,2,2,4,0,2,4,1,5204,8,0,11,2,3,4
910,33,0,0,2,3,4,1,3,2,2,2277,3,1,11,4,4,3
911,32,1,0,1,25,1,1,3,4,0,2795,1,1,24,2,1,0
912,29,0,0,1,7,1,0,2,4,2,2532,6,0,14,5,3,3
913,44,0,0,1,9,2,1,3,1,1,2559,1,1,13,0,3,7
916,28,0,0,0,5,1,1,3,4,0,4908,1,0,14,3,3,2
918,58,1,1,1,2,4,1,2,4,2,2380,9,1,14,3,2,0
920,43,0,0,1,8,1,0,3,2,2,4765,4,0,21,2,4,0
922,20,1,0,0,2,3,0,2,3,0,2044,1,0,13,3,2,2
923,21,1,0,1,18,4,0,3,4,0,2693,1,0,19,3,2,0
924,36,0,0,1,14,3,1,3,4,1,6586,0,1,17,2,2,8
925,47,0,0,0,2,4,0,2,4,0,3294,1,1,18,3,2,2
926,22,1,0,1,3,2,0,3,3,1,4171,0,1,19,3,4,2
927,41,1,0,1,2,2,0,1,4,2,2778,4,1,13,1,2,7
930,28,0,0,1,9,3,0,3,3,2,2377,5,0,18,2,3,2
932,39,1,0,1,6,4,1,3,1,1,2404,7,1,21,2,1,2
933,27,0,0,1,4,2,0,3,3,0,2318,1,0,19,2,3,1
934,34,0,0,1,10,2,1,3,2,2,2008,1,0,14,3,3,0
936,42,0,0,0,14,3,0,2,3,0,6244,7,0,17,6,3,4
939,33,0,0,1,1,3,1,2,1,0,2799,3,1,11,1,3,2
940,58,0,0,1,5,3,0,2,2,2,10552,2,1,13,3,3,0
941,31,0,0,0,7,2,1,2,3,1,2329,3,0,15,2,4,7
942,35,0,0,1,21,4,0,3,4,1,4014,1,1,25,2,1,6
944,49,0,0,1,8,1,0,3,2,1,7403,4,0,11,3,2,9
945,48,0,0,1,20,4,1,3,3,1,2259,4,0,17,2,2,0
947,31,0,2,0,20,4,0,3,3,1,6932,1,0,13,2,2,8
949,36,0,0,1,7,2,1,3,4,0,4678,2,0,18,6,3,2
950,38,0,0,1,1,4,0,3,1,1,13582,1,0,13,3,3,12
951,32,0,2,1,1,3,0,2,2,1,2332,6,0,20,3,3,0
952,25,1,0,0,19,3,1,2,2,1,2413,1,1,18,2,3,0
954,40,0,0,0,10,1,1,2,2,2,9705,2,0,12,2,2,0
956,26,0,1,0,1,3,1,2,1,0,4294,1,0,12,2,3,7
957,41,0,0,1,6,4,1,3,1,0,4721,2,1,13,3,3,13
958,36,0,0,1,2,3,1,3,3,0,2519,4,0,21,6,3,8
959,19,1,0,0,21,4,1,2,2,0,2121,1,1,13,3,4,0
960,20,1,0,1,4,1,1,3,1,0,2973,1,0,19,2,3,0
961,31,0,0,1,12,4,0,3,4,1,5855,0,1,11,2,1,7
964,40,0,1,1,9,4,1,3,2,2,3617,8,1,14,2,3,1
966,32,0,0,1,3,3,0,3,1,1,6725,1,0,12,2,4,7
967,36,1,0,0,3,3,1,2,4,1,10325,1,1,11,6,3,7
969,33,0,0,1,1,2,0,2,4,0,6949,0,0,14,3,3,0
970,37,1,0,0,1,1,1,2,3,1,10609,5,0,11,2,1,1
972,45,0,2,1,4,3,1,3,2,1,4447,1,0,12,5,2,7
974,29,0,1,0,20,3,0,3,4,1,2157,1,0,15,5,3,1
975,35,0,0,0,18,3,0,3,3,1,4601,1,0,16,3,3,2
976,52,0,0,1,1,4,1,3,4,1,17099,2,0,15,2,2,8
977,58,1,0,1,2,4,1,3,3,0,2479,4,0,24,4,3,0
981,53,0,0,0,2,3,1,3,3,2,14852,6,0,13,3,4,13
982,30,0,0,0,8,3,1,3,3,2,7264,5,0,11,2,4,4
983,38,0,2,0,10,3,0,3,4,0,5666,1,1,13,1,3,3
984,35,0,0,0,3,4,1,3,4,2,7823,6,0,13,2,3,9
985,39,0,0,0,2,1,1,4,3,0,7880,0,0,18,3,3,7
986,40,1,2,0,24,2,0,4,2,0,13194,4,1,16,2,2,0
987,47,0,1,1,16,3,1,4,3,2,5067,1,1,19,3,4,10
990,36,0,2,0,8,1,1,3,4,2,5079,4,0,13,3,3,7
991,31,1,2,1,9,3,1,2,1,0,2321,0,1,22,0,3,2
992,33,0,2,0,17,4,1,3,3,0,17444,1,0,11,2,3,8
994,29,1,0,1,10,4,0,2,1,0,2404,6,1,20,5,3,0
995,33,0,0,1,13,2,0,3,4,0,3452,3,0,18,4,3,2
996,45,0,0,1,1,4,0,3,4,2,2270,3,0,14,2,3,3
997,50,0,0,1,1,4,1,3,4,2,17399,9,0,22,1,2,4
998,33,0,1,1,1,3,0,4,2,1,5488,1,1,13,2,3,5
999,41,0,1,1,9,1,1,3,3,2,19419,2,0,17,2,4,16
1001,27,0,0,1,16,3,0,3,2,1,2811,9,0,14,2,3,2
1002,45,0,2,1,23,4,1,3,1,1,3633,1,1,15,2,3,8
1003,47,0,0,0,4,4,0,3,4,0,4163,1,1,17,0,3,0
1004,30,1,0,1,22,1,0,3,3,1,2132,4,1,11,2,3,2
1005,50,0,0,1,24,4,1,3,3,1,13973,3,1,18,2,3,11
1006,38,0,1,1,10,3,1,3,3,1,2684,0,0,17,0,2,1
1007,46,0,0,1,7,4,1,3,3,2,10845,6,0,13,3,3,7
1009,24,0,0,1,17,4,0,2,3,2,4377,1,0,15,6,3,2
1010,35,1,0,1,14,3,1,2,2,2,3743,1,1,24,2,1,2
1011,31,0,1,1,1,3,0,3,1,1,4148,1,0,12,1,3,3
1012,18,0,2,1,5,2,1,3,4,0,1051,1,0,15,2,3,0
1013,54,0,0,1,17,3,0,3,3,1,10739,8,0,11,2,3,7
1014,35,0,0,1,25,3,0,3,3,2,10388,1,1,11,3,2,10
1015,30,0,0,1,8,2,0,4,1,1,11416,0,1,12,4,2,7
1016,20,1,0,1,11,4,0,2,1,0,2600,1,1,15,2,3,0
1017,30,1,1,1,5,2,0,3,2,0,2422,0,0,17,3,3,2
1018,26,0,0,1,2,4,1,4,4,1,5472,1,0,12,2,3,7
1019,22,0,0,1,8,2,1,1,1,1,2451,1,0,15,3,2,3
1022,48,0,0,1,6,1,1,2,3,0,4240,2,0,13,0,3,2
1024,48,0,0,1,4,3,1,2,3,0,10999,7,0,14,3,3,11
1025,41,0,0,1,7,4,0,3,3,0,5003,6,0,14,6,3,2
1026,39,0,0,1,1,4,0,2,4,1,12742,1,0,16,3,3,6
1027,27,0,0,1,2,1,0,3,4,1,4227,0,0,18,2,3,2
1028,35,0,0,1,10,2,1,3,4,2,3917,1,0,20,4,2,2
1029,42,0,0,0,5,4,1,3,3,1,18303,6,0,13,3,4,0
1030,50,0,0,1,9,1,1,3,4,1,2380,4,0,18,5,3,0
1032,59,0,0,1,2,3,0,2,4,0,13726,3,1,13,4,3,3
1033,37,1,0,1,11,1,0,1,2,1,4777,5,0,15,2,1,0
1034,55,0,1,1,18,3,1,3,2,1,6385,3,1,14,3,3,7
1035,41,0,2,1,7,2,0,1,3,2,19973,1,0,22,3,3,16
1036,38,0,0,0,3,2,1,3,4,0,6861,8,1,12,1,3,0
1037,26,1,2,0,29,2,1,1,1,0,4969,8,0,18,6,3,2
1038,52,1,0,0,2,1,0,1,4,1,19845,1,0,15,3,3,14
1039,44,0,0,0,28,4,0,4,4,1,13320,3,1,18,2,3,11
1040,50,0,2,0,1,4,0,3,3,1,6347,0,0,12,3,3,7
1042,36,1,0,1,16,3,0,4,1,0,2743,1,0,16,1,3,13
1043,39,0,1,1,22,4,0,3,1,0,10880,1,1,13,2,3,6
1044,33,0,2,0,8,2,0,2,4,0,2342,0,0,19,2,2,2
1045,45,0,0,0,11,4,0,3,4,1,17650,3,0,13,4,4,3
1046,32,0,2,1,29,4,0,3,3,0,4025,9,0,12,2,3,7
1047,34,0,0,0,1,2,1,4,4,2,9725,0,0,11,2,2,1
1048,59,0,0,0,1,2,1,3,4,1,11904,3,1,14,1,1,4
1049,45,0,0,2,24,2,1,3,2,0,2177,1,0,16,3,3,3
1050,53,0,1,0,2,3,0,2,2,1,7525,2,0,12,2,3,7
1052,36,1,0,1,15,1,1,3,3,2,4834,7,0,14,3,2,0
1053,26,1,1,1,2,1,1,3,1,1,2042,6,1,14,2,3,2
1055,34,0,0,0,10,3,0,3,3,1,2220,1,1,19,2,3,1
1056,28,0,0,0,10,4,1,3,2,1,1052,1,0,22,5,3,0
1060,38,0,1,1,3,3,1,3,3,1,2821,3,0,16,2,3,2
1061,50,0,0,1,2,2,1,3,3,1,19237,2,1,11,2,2,1
1062,37,0,0,1,3,4,0,3,2,0,4107,3,0,15,3,2,3
1066,40,0,0,0,26,3,1,3,1,1,8396,1,0,14,3,2,7
1068,26,0,1,1,1,1,0,2,3,2,2007,1,0,13,5,3,3
1069,46,0,0,1,1,4,1,3,4,2,19627,9,0,17,0,3,2
1070,54,0,0,0,2,3,0,2,3,1,10686,6,0,11,4,3,4
1071,56,0,1,1,9,1,0,3,3,1,2942,2,0,19,4,3,4
1073,36,0,0,1,12,4,0,2,4,0,8858,0,0,11,2,2,8
1074,55,0,2,1,2,3,1,2,1,0,16756,7,0,15,3,4,7
1076,43,0,0,0,25,3,1,2,4,2,10798,5,0,13,5,3,0
1077,20,1,1,0,9,4,0,3,4,0,2323,1,1,14,3,3,2
1079,21,1,0,1,10,3,0,2,1,0,1416,1,0,13,6,2,0
1080,46,0,0,1,8,4,0,2,1,2,4615,8,1,23,2,3,13
1081,51,1,0,1,4,1,1,3,3,1,2461,9,1,12,2,4,0
1082,28,1,2,1,24,2,1,2,1,0,8722,1,0,12,2,2,7
1083,26,0,0,1,1,1,1,2,1,1,3955,1,0,16,2,3,3
1084,30,0,0,1,20,3,1,3,1,1,9957,0,0,15,1,2,2
1085,41,0,0,1,7,2,0,4,3,1,3376,1,0,13,3,3,6
1088,38,0,0,1,17,3,0,2,3,1,8823,0,0,18,4,2,9
1092,40,0,0,1,20,1,1,3,4,1,10322,4,0,20,6,3,10
1094,27,0,2,1,8,1,1,1,3,1,4621,1,0,19,4,3,2
1096,55,0,1,1,2,4,1,3,2,1,10976,3,0,18,4,3,2
1097,28,0,0,1,10,3,0,3,3,0,3660,3,0,13,4,4,7
1098,44,1,0,2,1,2,1,2,1,1,10482,9,0,14,1,3,6
1099,33,0,0,1,5,4,1,2,4,2,7119,4,0,15,2,3,2
1100,35,1,0,0,4,4,1,3,1,0,9582,0,1,22,2,3,7
1101,33,1,1,1,29,1,0,2,3,0,4508,1,0,22,4,3,7
1102,28,0,0,1,15,1,1,3,3,2,2207,1,0,16,5,2,2
1103,34,0,1,1,3,1,1,3,4,0,7756,0,0,17,1,2,2
1105,37,0,0,0,10,4,0,2,4,2,6694,2,1,14,5,3,0
1106,25,1,0,1,4,4,1,3,4,1,3691,1,1,15,3,4,7
1107,26,1,0,1,21,1,1,3,3,2,2377,1,0,20,0,2,1
1108,33,1,0,1,25,1,1,2,2,0,2313,4,1,20,0,3,2
1109,42,0,0,1,2,4,1,3,1,1,17665,0,0,17,3,3,6
1111,28,1,1,1,1,1,1,2,2,2,2596,1,0,15,2,3,0
1113,50,1,1,0,1,4,1,3,3,0,4728,3,1,14,4,3,0
1114,33,0,1,0,7,4,0,3,2,1,4302,0,0,17,3,3,2
1115,34,0,2,1,3,3,1,2,4,1,2979,3,0,17,2,3,0
1116,48,0,2,1,1,1,1,4,4,0,16885,2,0,22,3,2,4
1117,45,0,2,0,9,2,0,2,3,1,5593,1,0,13,2,3,10
1118,52,0,0,1,7,2,1,3,2,0,10445,7,0,19,4,3,6
1119,38,0,0,0,10,3,1,2,3,2,8740,0,1,14,2,3,7
1120,29,0,0,1,28,3,0,3,4,2,2514,4,0,22,1,3,5
1121,28,0,0,1,3,4,0,3,2,2,7655,0,0,17,3,2,7
1124,46,0,0,0,3,1,1,3,3,1,17465,3,0,12,3,3,9
1125,38,0,0,0,2,4,1,3,2,0,7351,7,0,16,2,3,0
1126,43,0,1,1,27,3,0,3,1,1,10820,8,0,11,1,3,7
1127,39,1,1,1,2,1,1,3,4,2,12169,7,0,11,4,3,7
1128,40,0,0,1,14,3,1,2,3,0,19626,1,0,14,2,4,7
1131,21,0,0,1,1,4,0,2,2,0,2070,1,1,11,6,4,2
1132,39,0,2,1,9,3,1,3,2,0,6782,9,0,15,2,2,4
1133,36,0,2,1,18,1,1,3,4,0,7779,2,0,20,0,3,9
1135,31,0,1,0,20,3,1,4,4,1,2791,0,0,12,4,3,2
1136,28,0,0,1,2,1,1,2,2,1,3201,0,0,17,2,1,3
1137,35,0,1,0,11,4,1,3,4,2,4968,1,0,11,3,3,2
1138,49,0,0,0,8,4,1,2,2,1,13120,6,0,17,3,3,8
1140,34,0,1,1,2,4,1,3,3,0,4033,2,0,11,3,2,2
1143,29,0,1,1,10,4,0,3,2,2,3291,0,0,14,2,2,5
1148,42,0,0,1,29,2,1,1,4,0,4272,4,0,19,3,3,0
1150,29,0,0,1,8,2,1,2,4,1,5056,1,1,15,2,2,7
1152,38,0,0,2,1,3,1,4,3,1,2844,1,0,13,2,4,6
1154,28,0,1,1,6,3,1,2,3,2,2703,1,1,14,2,3,1
1156,18,1,2,1,8,3,1,3,3,0,1904,1,0,12,0,3,0
1157,33,1,0,0,9,1,0,3,1,0,8224,0,1,17,3,3,2
1158,41,0,0,1,12,2,1,3,4,1,4766,3,1,11,4,3,0
1160,31,1,1,1,15,3,1,3,3,1,2610,1,0,12,5,2,2
1161,37,0,0,1,25,3,0,2,4,2,5731,7,0,13,2,3,2
1162,27,0,0,1,6,4,1,2,3,1,2539,1,0,13,0,3,2
1163,34,0,0,0,9,2,0,3,3,1,5714,1,0,20,3,2,5
1164,35,0,0,2,8,3,1,3,3,0,4323,1,0,17,2,1,4
1165,29,1,0,0,23,4,0,2,1,1,7336,1,0,13,3,1,8
1166,40,0,1,1,9,2,0,3,3,0,13499,9,0,17,3,2,7
1167,42,1,1,0,12,3,1,3,1,0,13758,0,1,12,2,2,9
1171,42,0,0,0,4,2,1,3,1,0,5155,7,0,13,3,4,4
1172,35,0,0,1,1,4,1,2,3,1,2258,6,0,12,2,3,0
1173,24,0,0,1,24,4,1,3,2,0,3597,8,0,22,2,3,3
1175,28,1,0,1,12,3,0,3,4,1,2515,1,1,11,4,2,1
1177,26,0,0,1,3,1,1,4,4,1,4420,1,0,22,2,3,7
1179,30,0,0,0,10,3,1,2,3,1,6578,1,0,18,3,3,3
1180,40,0,1,1,26,3,0,2,4,1,4422,3,1,13,3,1,1
1182,35,0,0,1,2,3,1,2,2,2,10274,2,0,18,2,4,7
1184,34,0,1,1,1,4,1,2,1,0,5343,0,0,20,3,3,9
1185,35,0,1,1,4,4,1,2,4,1,2376,1,0,13,2,4,2
1188,43,1,0,0,9,1,0,1,3,0,5346,8,0,13,2,2,3
1190,32,0,2,0,2,3,0,3,1,2,2827,1,0,12,3,3,0
1191,56,0,0,1,4,4,0,3,1,2,19943,4,0,13,2,3,2
1192,29,0,0,1,6,2,0,3,4,1,3131,1,0,13,5,3,8
1193,19,0,0,1,9,3,1,3,1,0,2552,1,0,25,4,3,1
1195,45,0,0,1,7,1,0,3,3,1,4477,4,1,19,2,2,2
1196,37,0,0,1,1,4,0,2,4,1,6474,1,0,13,2,2,8
1198,20,0,0,1,3,1,1,2,3,0,3033,1,0,12,2,2,2
1200,44,1,0,1,10,3,1,3,3,0,2936,1,1,11,4,3,4
1201,53,0,0,1,7,4,0,3,3,2,18606,3,0,18,6,3,7
1202,29,0,0,1,15,2,0,1,4,1,2168,0,1,18,2,2,4
1203,22,1,1,1,3,3,1,2,4,1,2853,0,1,11,5,3,0
1204,46,0,0,0,2,3,0,3,1,1,17048,8,0,23,2,3,15
1206,44,0,2,1,17,4,1,1,3,0,2290,2,0,13,3,3,0
1207,33,0,0,2,2,2,1,3,3,1,3600,1,0,13,2,3,4
1210,41,1,2,1,5,1,1,2,1,2,2107,6,0,17,2,1,0
1211,30,0,0,0,29,3,1,3,1,2,4115,8,0,19,3,3,3
1212,40,0,1,0,2,2,1,3,2,1,4327,5,0,12,2,3,0
1215,50,0,1,1,2,4,0,3,1,1,17856,2,0,22,3,3,2
1216,28,0,0,1,19,4,1,2,1,1,3196,1,0,12,2,3,5
1217,46,0,0,1,15,4,1,3,2,1,19081,5,0,11,2,3,2
1218,35,0,0,0,17,3,1,3,1,1,8966,3,1,15,2,3,7
1219,24,1,0,1,17,4,0,3,2,1,2210,1,0,13,3,1,0
1220,33,0,1,0,25,2,0,3,3,1,4539,1,0,12,3,2,7
1221,36,0,0,1,6,3,1,1,3,2,2741,1,0,14,4,3,7
1224,30,0,0,1,7,3,1,3,3,2,3491,1,0,13,4,2,7
1225,44,0,0,1,29,4,1,3,4,0,4541,1,0,25,3,3,11
1226,20,0,0,0,21,3,1,4,4,0,2678,1,0,17,2,3,1
1228,46,0,0,1,2,4,1,3,4,2,7379,2,0,11,3,2,3
1231,42,0,2,2,2,4,1,4,1,1,6272,7,0,16,3,4,3
1233,60,0,0,0,7,2,1,4,4,2,5220,0,1,18,3,3,7
1234,32,0,1,1,13,3,0,2,2,1,2743,1,0,20,2,3,2
1235,32,0,1,1,2,4,0,3,3,0,4998,4,1,14,2,3,7
1237,36,0,0,1,1,3,0,1,1,2,10252,2,1,21,2,3,7
1238,33,0,0,1,9,1,1,3,4,1,2781,0,0,13,5,3,10
1239,40,0,0,0,10,2,0,2,2,2,6852,7,0,12,2,4,1
1240,25,0,0,0,10,3,1,3,4,0,4950,0,0,14,4,3,3
1241,30,0,0,1,1,4,1,3,2,1,3579,0,1,21,2,3,9
1242,42,0,1,1,26,1,0,3,1,1,13191,3,1,17,6,3,0
1243,35,0,2,0,8,3,0,2,4,1,10377,4,1,11,6,2,2
1244,27,0,0,1,14,1,1,3,1,1,2235,1,1,14,3,2,7
1245,54,0,1,1,1,4,0,3,3,2,10502,7,0,17,2,1,4
1246,44,0,0,1,2,1,0,4,4,1,2011,1,0,13,5,3,5
1248,19,1,2,1,10,1,0,2,2,0,1859,1,1,25,2,4,1
1249,29,0,0,1,1,1,0,3,4,2,3760,1,0,15,5,3,2
1250,54,0,0,1,3,4,1,3,4,1,17779,3,0,14,2,3,9
1251,31,0,0,1,11,3,1,3,1,1,6833,1,1,12,2,2,5
1252,31,0,0,1,24,3,0,2,1,0,6812,1,0,19,2,3,9
1254,59,0,0,0,3,3,0,2,4,0,5171,5,0,17,2,3,1
1255,43,0,0,1,3,3,1,1,4,1,19740,3,0,14,2,3,7
1256,49,0,0,1,4,1,1,2,3,1,18711,2,0,13,2,4,0
1257,36,0,1,1,3,3,1,3,2,1,3692,1,0,12,2,2,10
1258,48,0,0,1,2,4,1,4,2,0,2559,5,0,11,4,2,0
1259,27,0,0,1,4,1,1,3,3,2,2517,1,0,11,2,3,3
1260,29,0,0,1,7,3,1,3,4,2,6623,1,1,11,2,3,0
1263,48,0,0,1,1,4,1,2,4,0,18265,6,0,12,3,4,0
1264,29,0,0,1,1,4,0,2,4,2,16124,3,0,14,2,2,7
1265,34,0,0,1,20,3,0,4,3,1,2585,0,0,17,5,2,0
1267,44,0,0,0,5,2,1,3,2,1,18213,7,0,11,5,3,9
1268,33,0,0,0,10,4,1,4,3,2,8380,0,1,14,3,3,8
1269,19,0,0,1,25,2,0,4,4,0,2994,1,1,12,2,3,0
1270,23,0,0,1,1,4,1,3,3,1,1223,1,0,22,2,3,0
1273,25,1,1,0,24,3,1,1,4,0,1118,1,1,14,4,3,0
1275,26,0,0,1,4,3,1,3,4,0,2875,1,1,20,2,2,5
1277,45,1,0,0,2,1,0,1,2,0,18824,2,1,16,2,3,10
1278,55,0,2,1,8,4,1,2,2,2,13577,1,1,15,3,3,9
1279,21,1,1,1,10,1,0,2,3,0,2625,1,0,20,2,1,2
1280,46,0,0,0,4,4,0,2,2,1,18789,2,0,14,2,3,4
1281,34,0,0,0,2,3,0,3,1,0,4538,0,1,12,3,3,2
1282,51,0,1,0,9,4,1,3,2,2,19847,4,1,24,5,2,10
1283,59,0,0,1,18,4,1,3,4,0,10512,6,0,12,6,2,7
1285,34,0,1,1,19,3,0,3,2,2,4444,4,0,13,2,4,8
1286,28,0,1,1,1,4,1,3,3,0,2154,0,1,11,2,2,2
1288,44,0,0,1,4,3,1,4,1,2,19190,1,0,14,4,2,9
1289,34,0,1,2,11,3,1,2,2,1,4490,4,0,11,5,4,9
1291,35,0,0,1,6,3,1,3,3,1,3506,0,1,14,3,3,2
1292,42,0,0,1,7,2,0,4,2,1,2372,6,1,16,2,3,0
1293,43,0,0,0,4,4,0,2,4,0,10231,3,0,14,3,4,7
1294,36,0,0,1,2,3,0,3,2,0,5410,9,1,11,2,3,14
1295,44,1,0,1,15,1,0,3,4,1,7978,1,0,11,2,3,7
1296,28,0,1,1,2,4,1,2,4,1,3867,1,1,12,2,3,2
1297,51,0,1,1,6,2,0,2,3,0,2838,0,0,14,6,2,0
1298,30,0,2,1,9,3,0,3,3,0,4695,7,1,18,3,3,4
1299,29,1,0,1,7,2,0,3,3,2,3339,3,1,13,2,3,7
1301,28,0,0,1,1,4,1,3,1,0,2080,2,0,11,2,2,2
1303,25,0,0,1,1,4,0,3,2,0,2096,1,0,18,3,2,2
1304,32,0,0,0,8,3,1,4,4,1,6209,1,0,15,4,4,7
1306,45,0,1,1,25,2,0,3,2,0,18061,3,0,22,4,3,0
1307,39,0,0,1,13,3,0,2,2,2,17123,6,1,13,4,3,9
1308,58,0,0,1,23,1,1,3,3,2,2372,1,0,12,3,3,2
1309,32,1,0,1,7,4,1,3,3,1,4883,1,0,18,3,3,4
1310,39,1,0,1,23,3,1,3,1,0,3904,0,0,13,2,3,2
1311,30,0,0,1,6,1,0,2,4,1,4627,0,0,12,6,3,2
1312,36,0,0,1,10,4,0,3,3,1,7094,3,0,12,0,3,7
1314,46,0,0,2,1,4,0,3,1,0,3423,6,0,12,3,4,6
1315,28,0,2,1,1,3,0,1,4,1,6674,0,0,11,6,3,8
1317,50,0,0,1,28,4,0,3,1,1,16880,4,1,11,2,3,2
1318,40,1,0,0,25,4,1,2,2,0,9094,2,1,12,2,3,4
1319,52,1,0,0,5,2,1,3,2,0,8446,9,1,19,2,2,7
1321,30,0,0,1,17,2,0,3,1,1,11916,1,1,23,2,3,1
1322,39,0,0,1,18,1,1,3,3,0,4534,0,0,11,6,3,7
1324,31,0,2,0,2,4,0,3,3,2,9852,1,1,19,5,2,8
1329,41,0,2,0,10,3,1,1,2,0,6151,1,0,13,4,3,2
1331,31,1,1,0,1,4,0,3,2,0,2302,1,1,11,2,4,2
1333,44,1,0,1,3,1,1,3,1,1,2362,4,0,12,4,4,2
1334,42,0,2,1,2,3,1,3,3,1,17861,0,1,13,3,2,8
1336,55,0,0,1,2,4,0,1,3,1,19187,4,0,14,5,3,9
1338,56,0,0,2,8,4,1,3,2,0,19717,6,0,14,4,3,3
1340,40,0,2,1,16,3,1,3,3,2,3544,9,0,16,0,3,2
1344,34,0,0,1,9,4,1,3,4,2,8500,0,0,11,0,2,7
1346,40,0,0,1,2,3,1,3,4,0,4661,1,0,13,4,3,8
1349,41,0,1,0,1,3,0,3,1,2,4103,0,0,17,2,3,3
1350,35,0,1,1,4,3,1,3,3,0,4249,1,1,11,3,3,6
1352,51,0,0,2,5,3,1,3,2,2,14026,1,1,11,2,3,9
1355,38,0,0,0,2,2,0,3,1,2,6893,3,0,15,3,3,7
1356,34,0,0,0,15,3,0,3,1,0,6125,1,0,12,6,4,8
1358,25,0,0,1,19,4,1,3,4,1,3669,3,0,11,6,2,2
1360,58,1,0,1,7,3,0,2,1,1,10008,7,1,14,0,2,9
1361,40,0,0,1,1,2,1,3,2,1,2387,3,0,22,3,3,2
1362,36,0,1,0,7,1,0,4,1,1,4639,2,0,16,2,2,7
1363,48,0,0,1,4,4,1,3,4,0,7898,1,0,11,2,3,9
1364,27,0,0,0,11,3,0,4,4,1,2534,8,0,14,4,3,0
1367,51,0,0,1,11,4,0,2,2,0,13142,3,0,16,1,2,2
1368,18,0,2,1,1,4,0,3,4,0,1611,1,0,15,5,4,0
1369,35,0,0,1,1,4,0,2,4,1,5363,0,0,12,0,3,7
1371,27,0,1,0,2,4,1,1,4,0,5071,3,0,20,3,3,2
1372,55,1,0,0,13,1,1,4,3,0,13695,6,1,17,2,2,7
1373,56,0,0,1,23,4,1,3,2,1,13402,4,1,12,0,3,16
1374,34,0,2,1,26,1,0,2,3,2,2029,1,0,20,2,3,4
1375,40,0,0,1,2,2,0,4,3,2,6377,5,0,20,0,3,11
1377,34,0,0,1,29,2,1,3,3,1,5429,4,0,13,1,3,7
1379,31,1,1,0,2,3,0,2,4,0,2785,7,0,14,3,4,0
1380,35,1,1,0,18,4,0,3,3,1,4614,0,1,18,0,2,2
1382,38,0,1,1,7,4,1,4,3,2,2610,1,0,11,2,3,2
1383,34,0,0,1,2,3,0,3,4,0,6687,1,0,11,2,4,11
1387,28,0,0,0,26,3,1,2,1,1,4724,1,0,11,0,3,3
1389,31,1,0,1,22,4,1,3,3,1,6179,1,1,15,3,2,2
1390,39,0,0,0,21,1,1,2,4,1,6120,3,1,12,2,4,4
1391,51,0,1,0,2,2,1,3,2,1,10596,2,0,11,5,3,2
1392,41,0,1,1,22,4,0,3,4,2,5467,3,1,14,4,2,2
1394,37,0,0,1,4,3,1,3,3,1,2996,7,1,15,2,3,4
1395,33,0,1,0,5,2,1,3,4,1,9998,6,0,13,2,4,4
1396,32,0,0,0,2,3,1,3,2,1,4078,0,1,13,3,2,2
1397,39,0,2,1,25,3,1,3,3,1,10920,3,0,21,2,3,4
1399,25,0,0,0,18,1,1,4,3,1,6232,2,0,11,3,2,2
1401,52,0,1,1,28,4,0,4,3,1,13247,2,1,11,3,2,3
1402,43,0,0,1,6,1,0,2,3,0,4081,1,1,14,3,1,7
1403,27,0,0,0,10,4,0,2,4,1,5769,1,1,11,3,3,2
1405,27,1,0,1,17,4,0,3,3,0,2394,1,1,13,2,3,2
1407,26,0,0,1,2,1,1,2,4,0,3904,0,0,12,2,3,3
1408,42,0,0,2,10,3,0,3,1,1,16799,0,0,14,5,3,7
1409,52,0,0,1,8,3,0,3,1,1,2950,9,0,13,2,1,4
1411,37,0,0,1,11,1,0,3,3,0,3629,4,0,18,6,3,2
1412,35,0,1,1,18,3,1,3,4,0,9362,2,0,11,2,3,2
1415,25,0,0,1,1,1,1,3,4,1,3229,4,0,11,2,2,2
1417,26,0,0,1,7,3,1,4,1,0,3578,0,0,12,2,3,7
1419,29,0,0,2,17,2,1,2,1,0,7988,1,0,13,3,2,9
1420,49,1,1,1,28,1,1,2,1,0,4284,3,0,20,2,3,3
1421,29,1,1,1,14,3,0,3,4,0,7553,0,1,12,1,3,7
1422,54,0,0,1,1,4,0,3,4,0,17328,6,0,19,3,2,7
1423,58,0,0,1,1,4,0,3,1,1,19701,3,1,21,3,3,8
1424,55,0,0,1,1,2,1,4,4,2,14732,2,0,13,4,4,7
1425,36,0,0,0,3,1,0,3,2,0,9278,3,1,16,3,3,4
1427,31,1,1,0,1,2,0,1,3,0,1359,1,0,12,3,3,0
1428,30,0,0,0,7,4,0,3,1,2,4779,7,0,14,3,3,2
1430,31,0,0,1,8,1,0,3,2,0,16422,3,0,11,3,4,2
1431,34,0,1,1,1,4,1,3,1,2,2996,5,0,14,2,3,3
1433,31,1,0,1,8,1,0,2,2,0,1261,1,0,12,3,4,0
1434,27,0,0,1,11,2,1,3,1,1,2099,0,0,14,3,4,0
1435,36,0,0,1,4,1,1,2,4,0,5810,1,0,16,2,2,4
1436,36,0,0,0,16,3,0,2,1,1,5647,4,0,13,3,2,2
1438,47,0,0,1,1,1,1,3,4,1,3420,7,0,12,2,2,5
1439,25,1,0,0,9,1,1,2,1,1,4400,3,0,12,2,3,2
1440,37,0,2,1,5,3,1,4,3,0,3500,0,0,14,2,1,5
1441,56,0,0,1,1,1,0,3,1,1,2066,2,0,22,3,4,2
1443,47,0,0,1,2,1,0,3,3,1,17169,3,0,19,2,4,17
1445,24,0,0,0,4,4,0,3,3,1,4162,1,1,12,3,3,4
1446,32,0,0,0,7,4,1,3,4,1,9204,4,0,12,3,2,3
1447,34,0,0,1,1,4,0,2,2,1,3294,5,0,17,2,2,4
1448,41,0,0,1,5,2,1,4,3,1,2127,2,1,12,5,2,2
1449,40,0,2,1,9,3,1,3,3,2,3975,3,0,11,2,4,7
1453,31,0,0,0,8,1,1,3,4,2,10793,1,0,18,5,3,7
1457,46,1,0,0,9,1,1,3,4,2,10096,4,0,11,1,4,7
1458,39,1,2,1,2,1,0,2,1,0,3646,2,1,23,2,4,0
1459,31,1,1,1,1,3,0,4,2,0,7446,1,0,11,2,3,8
1460,45,0,0,1,20,2,1,1,1,2,10851,2,1,18,2,3,7
1461,31,0,0,2,8,4,0,4,2,0,2109,9,0,18,3,3,2
1464,31,1,1,1,2,2,1,3,4,1,3722,6,1,13,2,1,2
1465,45,0,0,1,29,2,1,3,4,1,9380,4,1,18,4,4,1
1466,48,0,0,0,7,3,1,3,1,2,5486,4,0,11,3,3,2
1467,34,1,0,2,9,1,0,3,3,1,2742,1,0,15,0,3,2
1468,40,0,2,1,8,4,1,2,2,2,13757,2,0,11,5,3,8
1469,28,0,0,0,5,4,1,3,1,0,8463,0,0,18,4,3,4
1471,44,0,2,1,5,3,1,2,3,0,3162,3,0,14,5,3,2
1472,53,0,0,1,2,4,1,4,2,0,16598,4,0,12,2,2,8
1473,49,0,0,1,5,1,1,3,3,1,6651,2,0,14,0,2,2
1474,40,0,0,1,2,3,1,3,3,2,2345,2,0,14,3,4,1
1475,44,0,0,1,20,4,1,3,2,0,3420,1,0,13,3,2,2
1477,33,0,1,0,7,4,1,3,1,1,4373,0,0,14,2,3,3
1478,34,0,0,0,3,4,1,1,1,0,4759,3,0,18,2,3,9
1479,30,0,0,0,16,4,1,3,3,1,5301,8,0,15,2,2,1
1480,42,0,1,1,9,1,0,3,4,0,3673,1,0,13,3,3,9
1481,44,0,1,0,1,1,0,3,3,1,4768,7,0,12,4,2,0
1482,30,0,2,1,7,3,1,3,3,2,1274,1,0,13,2,2,0
1483,57,0,0,1,1,2,1,4,3,1,4900,0,0,24,2,2,9
1484,49,0,0,1,7,3,1,3,2,2,10466,3,0,14,3,3,7
1485,34,0,1,1,15,2,1,3,1,2,17007,7,0,14,3,2,8
1486,28,1,1,0,1,1,1,3,3,1,2909,3,0,15,3,4,2
1487,29,1,1,0,13,1,0,3,2,0,5765,5,0,11,4,1,3
1489,34,1,0,0,24,1,0,2,2,0,4599,0,1,23,2,4,9
1492,35,0,0,0,7,4,1,3,3,1,2404,1,0,13,3,3,0
1494,24,1,1,1,9,2,1,3,1,0,3172,2,1,11,2,2,0
1495,24,0,2,0,13,4,0,3,2,1,2033,1,0,13,2,3,0
1496,44,0,1,1,2,2,1,3,3,0,10209,5,1,18,2,2,2
1497,29,0,0,0,19,3,1,2,3,2,8620,1,0,14,3,3,7
1499,30,0,0,2,1,3,1,3,3,2,2064,0,0,21,3,4,3
1501,55,0,0,1,4,4,1,3,3,1,4035,0,1,16,2,3,2
1502,33,0,0,1,4,1,0,2,2,1,3838,8,0,11,5,3,4
1503,47,0,0,0,14,3,0,3,3,1,4591,3,1,17,4,2,4
1504,28,1,1,1,2,3,1,2,1,0,2561,7,0,11,2,2,0
1506,28,0,0,1,1,1,1,2,3,2,1563,1,0,14,2,1,0
1507,28,0,1,0,7,3,1,3,1,0,4898,0,0,14,5,3,2
1509,49,0,0,1,3,3,0,2,1,1,4789,4,0,25,3,3,2
1513,29,0,1,1,2,4,0,3,2,1,3180,0,0,13,3,3,2
1514,28,0,0,1,29,3,1,1,2,1,6549,1,0,14,2,2,6
1515,33,0,0,1,8,4,1,3,3,0,6388,2,1,17,6,3,0
1516,32,0,0,1,10,3,1,3,4,0,11244,2,0,25,5,4,2
1520,54,0,1,1,11,2,0,3,4,2,16032,3,0,20,2,3,9
1522,29,1,0,1,1,1,1,2,1,0,2362,6,0,13,2,1,7
1523,44,0,0,1,28,4,1,3,1,1,16328,3,0,13,1,4,6
1525,39,0,0,1,6,2,0,3,2,0,8376,4,0,18,3,3,0
1527,46,0,0,0,3,3,0,3,2,1,16606,8,0,12,2,4,12
1529,35,0,0,1,16,4,0,2,2,0,8606,1,0,19,3,1,8
1533,23,0,0,1,20,1,1,3,3,0,2272,0,0,14,2,3,3
1534,40,1,0,1,9,4,1,3,1,0,2018,3,0,14,3,1,4
1535,34,0,0,0,1,4,1,2,3,1,7083,1,1,14,3,3,9
1537,31,1,1,1,3,4,0,3,3,0,4084,1,0,12,2,1,2
1539,50,0,1,1,22,3,1,1,4,0,14411,1,1,13,2,3,6
1541,34,0,0,0,7,2,1,3,3,1,2308,0,1,25,4,3,10
1542,42,0,0,1,2,3,1,2,2,1,4841,4,0,14,3,3,0
1543,37,0,0,1,13,1,1,3,4,1,4285,1,0,17,2,3,8
1544,29,0,0,1,8,3,0,1,1,1,9715,3,0,13,3,3,7
1545,33,0,0,1,25,4,1,2,2,0,4320,1,0,13,2,3,3
1546,45,0,0,1,28,4,1,3,4,1,2132,4,0,20,3,3,4
1547,42,0,1,1,2,4,1,3,4,1,10124,2,1,14,3,1,8
1548,40,0,0,0,9,1,1,3,1,1,5473,0,0,12,5,4,4
1549,33,0,0,1,28,2,1,3,3,1,5207,1,1,12,3,3,14
1550,40,0,0,2,6,3,1,3,4,0,16437,1,1,21,2,3,7
1551,24,0,0,1,21,3,1,2,1,2,2296,0,0,14,3,3,1
1552,40,0,2,1,8,4,1,3,4,2,4069,3,1,18,2,3,2
1553,45,0,0,1,1,1,1,3,2,2,7441,1,0,12,4,3,8
1554,35,0,0,0,28,2,0,2,3,1,2430,0,0,23,5,3,3
1555,32,0,0,1,5,4,0,2,2,1,5878,3,0,12,2,3,1
1556,36,0,0,0,2,3,1,3,4,0,2644,3,1,21,3,2,2
1557,48,0,0,0,16,3,0,3,3,2,6439,8,0,14,2,3,7
1558,29,0,0,1,9,3,1,4,3,1,2451,6,0,18,2,2,0
1560,33,0,0,0,8,1,1,3,1,1,6392,2,0,13,6,1,2
1562,30,1,0,0,1,2,1,2,1,1,9714,1,0,11,4,3,8
1563,38,0,1,2,10,3,1,3,3,1,6077,3,0,11,2,3,3
1564,35,0,0,1,1,4,1,2,1,0,2450,1,0,19,3,3,0
1568,30,0,0,0,29,3,1,3,2,1,9250,3,0,12,3,3,2
1569,35,1,0,1,2,1,0,3,1,2,2074,1,1,12,2,3,0
1572,53,1,0,1,2,3,0,2,4,1,10169,0,0,16,4,3,7
1573,38,1,0,1,2,3,1,3,2,1,4855,4,0,11,2,3,2
1574,32,0,2,1,1,4,1,3,1,1,4087,4,0,14,3,2,5
1576,48,0,0,1,15,3,0,3,1,1,2367,8,0,12,3,2,2
1577,34,0,0,1,7,1,1,3,4,0,2972,1,0,13,4,1,0
1578,55,0,0,0,26,3,1,2,4,1,19586,1,0,21,3,3,6
1580,34,0,0,1,1,2,1,3,4,1,5484,9,0,17,3,2,2
1581,26,0,0,1,3,1,0,3,4,1,2061,1,0,21,5,3,0
1582,38,0,0,0,14,3,1,3,2,1,9924,0,0,11,3,3,8
1583,38,0,0,0,16,2,0,3,2,0,4198,2,0,12,5,4,2
1585,36,0,0,0,1,2,0,3,3,0,6815,6,0,13,5,3,0
1586,29,0,0,1,3,2,1,3,1,0,4723,1,1,18,3,3,9
1587,35,0,0,1,10,1,0,3,3,0,6142,3,1,16,4,3,2
1588,39,0,0,0,6,4,1,4,3,1,8237,2,0,11,3,3,6
1590,29,0,1,1,2,1,1,3,4,2,8853,1,0,19,0,4,4
1591,50,0,0,0,9,3,1,3,3,1,19331,4,1,16,2,3,0
1592,23,0,0,1,10,4,1,4,3,1,2073,2,0,16,2,3,2
1594,36,0,1,1,6,1,1,4,1,1,5562,3,1,13,3,3,2
1595,42,0,0,1,9,4,1,2,4,0,19613,8,0,22,2,3,0
1596,35,0,0,1,28,2,1,4,3,1,3407,1,0,17,3,2,9
1597,34,0,1,1,10,4,1,2,3,1,5063,1,0,14,3,2,2
1598,40,0,0,0,14,4,0,3,1,1,4639,1,0,15,2,3,4
1599,43,0,0,1,27,4,1,4,2,2,4876,5,0,12,0,3,4
1601,35,0,0,1,7,3,1,2,4,1,2690,1,0,18,5,2,0
1602,46,0,0,0,1,4,1,4,1,0,17567,1,0,15,5,1,0
1604,28,1,0,1,24,3,1,3,2,1,2408,1,1,17,3,3,1
1605,22,0,2,1,26,2,0,2,3,1,2814,1,1,14,2,2,2
1606,50,0,1,1,20,2,1,3,3,1,11245,2,1,15,3,3,8
1607,32,0,0,1,5,2,0,4,4,1,3312,3,0,17,3,3,2
1608,44,0,0,1,7,2,0,3,4,2,19049,0,1,14,4,2,7
1609,30,0,0,1,7,2,1,2,2,1,2141,1,0,12,3,2,4
1611,45,0,0,1,5,3,0,1,1,0,5769,1,1,14,3,3,7
1612,45,0,2,0,26,1,1,2,1,1,4385,1,0,15,2,3,7
1613,31,0,1,0,2,4,1,3,1,0,5332,7,0,13,3,3,2
1614,36,0,0,1,12,3,0,3,3,1,4663,9,1,12,2,3,2
1615,34,0,1,1,10,3,1,4,4,2,4724,1,0,13,3,3,7
1617,49,0,0,1,25,3,0,3,1,1,3211,1,0,14,3,2,6
1618,39,0,0,1,10,2,1,3,1,1,5377,2,0,13,3,3,7
1619,27,0,0,1,19,4,1,2,1,2,4066,1,0,11,3,3,7
1621,35,0,0,1,18,2,1,4,1,1,5208,1,0,11,2,3,15
1622,28,0,0,1,27,2,0,1,1,2,4877,0,0,21,5,2,3
1623,21,0,0,1,5,3,1,3,4,0,3117,1,0,18,2,3,2
1624,18,1,1,0,3,2,0,3,4,0,1569,1,1,12,2,4,0
1625,47,0,0,2,26,4,0,3,3,1,19658,3,0,11,2,3,2
1627,39,0,0,1,3,3,1,2,3,2,3069,0,0,15,3,3,8
1628,40,0,0,1,15,1,0,2,3,1,10435,1,0,13,2,3,15
1630,35,0,2,1,8,3,0,3,3,1,4148,1,0,12,5,3,11
1631,37,0,0,1,19,3,1,3,3,1,5768,3,0,17,2,2,3
1633,39,0,1,1,4,1,0,3,3,0,5042,0,0,13,2,1,2
1635,45,0,0,1,2,4,0,2,4,2,5770,1,0,19,3,3,7
1638,38,0,0,1,2,4,0,2,3,1,7756,3,1,19,6,4,4
1639,35,1,0,0,10,4,1,2,1,1,10306,9,0,17,3,3,12
1640,37,0,0,1,10,2,0,3,2,1,3936,1,0,11,2,1,4
1641,40,0,0,1,16,3,0,3,4,0,7945,6,1,15,2,2,2
1642,44,0,1,2,1,1,1,3,4,1,5743,4,1,11,3,3,7
1644,48,0,1,1,4,3,1,2,4,1,15202,2,0,25,3,3,2
1645,35,1,0,0,15,1,1,1,4,2,5440,6,1,14,2,2,2
1646,24,0,1,1,2,1,0,3,4,0,3760,1,1,13,2,3,3
1647,27,0,0,1,8,2,0,4,3,1,3517,7,0,17,0,3,2
1648,27,0,1,1,2,4,1,3,4,0,2580,2,0,13,0,2,2
1649,40,1,0,1,7,1,1,3,1,0,2166,3,1,14,3,1,2
1650,29,0,0,0,10,3,1,2,3,0,5869,9,0,11,2,3,2
1651,36,0,0,1,5,2,0,3,1,1,8008,4,0,12,6,3,2
1653,25,0,1,1,2,4,1,4,3,2,5206,1,0,17,6,3,7
1654,39,0,0,1,12,4,1,3,2,1,5295,4,0,21,3,3,4
1655,49,0,0,1,22,1,0,3,2,1,16413,3,0,16,2,3,2
1656,50,0,0,1,17,4,0,2,1,2,13269,5,0,15,3,3,11
1657,20,0,0,0,2,3,0,3,3,0,2783,1,0,19,3,3,2
1658,34,0,0,1,3,4,0,3,2,2,5433,1,0,12,2,3,8
1659,36,0,0,1,7,1,1,3,2,0,2013,2,0,11,4,3,3
1661,49,0,0,1,6,3,0,2,3,1,13966,2,1,19,3,3,11
1662,36,0,2,1,1,4,0,2,3,1,4374,0,0,15,6,3,2
1664,36,0,0,1,3,4,1,4,1,2,6842,6,0,20,3,3,4
1665,54,0,0,1,22,2,0,3,3,1,17426,3,0,25,6,3,8
1666,43,0,0,1,15,3,1,2,3,1,17603,1,0,24,3,3,10
1667,35,1,1,0,12,4,1,3,4,0,4581,3,1,24,2,4,9
1668,38,0,1,1,1,4,1,3,4,1,4735,7,0,15,4,4,11
1669,29,0,0,0,5,1,1,2,2,2,4187,1,1,13,3,2,0
1670,33,0,0,0,2,4,1,3,4,2,5505,1,0,14,5,3,2
1671,32,0,0,1,2,4,1,3,2,2,5470,0,0,13,4,2,5
1673,31,0,0,0,5,1,0,3,4,1,5476,1,0,11,2,3,0
1674,49,0,0,1,16,4,0,3,1,2,2587,4,1,16,2,2,2
1675,38,0,1,1,2,4,0,2,2,0,2440,1,0,22,3,3,3
1676,47,0,0,0,2,2,0,4,2,2,15972,6,0,14,2,3,2
1677,49,0,0,1,1,3,1,3,3,0,15379,4,0,14,2,3,7
1678,41,0,0,0,23,4,1,3,3,0,7082,3,1,16,2,3,0
1680,20,0,0,0,9,4,1,3,1,0,2728,1,0,11,3,3,2
1681,33,0,2,0,16,3,0,3,4,2,5368,1,1,25,2,3,5
1682,36,0,0,1,26,1,1,3,3,1,5347,6,0,14,2,2,2
1683,44,0,0,2,1,3,0,3,4,2,3195,4,1,18,2,3,2
1684,23,1,0,1,8,4,1,2,3,0,3989,1,1,11,2,3,4
1687,38,0,0,1,4,4,0,3,3,1,3306,7,0,19,5,2,0
1689,53,0,0,1,24,2,1,4,4,1,7005,3,0,15,2,3,3
1691,48,1,1,0,7,4,0,3,3,1,2655,2,1,11,3,3,7
1692,32,1,0,1,2,4,1,3,2,0,1393,1,0,12,2,3,0
1693,26,0,2,1,7,4,1,3,4,0,2570,1,0,20,5,3,7
1694,55,0,0,1,22,1,1,2,2,2,3537,5,0,12,1,3,2
1696,34,0,0,1,5,2,1,2,4,1,3986,1,0,14,3,4,10
1697,60,0,0,1,1,3,1,1,4,2,10883,3,0,20,2,4,0
1698,33,0,0,1,21,2,1,4,2,1,2028,1,0,18,6,3,11
1700,37,0,1,0,1,3,1,1,4,2,9525,1,0,14,2,2,3
1701,34,0,0,1,19,2,0,2,4,1,2929,1,0,12,3,3,9
1702,23,1,0,0,7,3,1,3,4,2,2275,1,1,21,2,3,2
1703,44,0,0,1,2,3,0,4,4,1,7879,1,1,19,2,3,7
1704,35,0,1,1,2,1,1,2,4,0,4930,0,1,14,2,4,4
1706,43,0,0,0,2,4,1,3,4,1,7847,1,1,17,3,3,9
1707,24,0,0,1,9,3,1,4,3,1,4401,1,0,16,1,3,3
1708,41,0,0,0,6,4,1,3,3,0,9241,1,0,12,3,3,8
1709,29,0,0,1,9,4,0,3,3,1,2974,9,0,17,2,3,3
1710,36,0,0,0,2,3,0,3,4,0,4502,3,0,15,2,2,7
1712,45,0,2,1,1,3,1,2,3,1,10748,3,0,23,3,2,15
1714,24,1,0,2,22,4,1,1,3,1,1555,1,0,11,2,3,0
1716,47,1,1,0,9,3,1,1,3,1,12936,7,0,11,3,1,5
1718,26,0,0,1,17,4,1,1,3,1,2305,1,0,15,3,4,2
1719,45,0,0,1,28,4,0,2,2,0,16704,1,0,11,2,3,6
1720,32,0,1,1,10,1,1,3,3,1,3433,6,0,13,3,2,2
1721,31,0,0,1,2,2,1,3,3,1,3477,1,0,14,2,4,2
1722,41,0,2,2,4,3,1,1,2,1,6430,6,0,19,4,3,2
1724,40,0,0,1,8,2,0,3,1,1,6516,2,1,16,3,3,0
1725,24,0,0,1,29,2,1,3,1,2,3907,1,0,13,2,4,2
1727,46,0,0,1,13,3,1,3,2,0,5562,6,0,14,3,3,7
1728,35,0,0,1,27,4,1,3,3,1,6883,2,0,16,3,3,7
1729,30,0,0,1,16,2,1,3,4,1,2862,1,0,12,2,2,0
1731,47,0,2,0,2,3,1,3,2,1,4978,7,0,11,3,1,0
1732,46,0,0,0,2,3,1,3,4,2,10368,4,1,12,5,2,6
1733,36,1,0,0,13,2,1,2,1,2,6134,5,1,13,3,3,2
1734,32,1,0,0,1,1,1,1,2,0,6735,6,0,15,2,3,0
1735,23,0,0,1,4,3,0,3,2,0,3295,1,0,13,3,1,2
1736,31,0,1,1,24,4,0,3,4,0,5238,2,0,20,3,2,4
1737,39,0,2,1,1,4,1,3,4,1,6472,1,1,15,2,3,8
1739,32,0,0,0,19,4,1,1,3,1,9610,3,0,13,2,1,3
1740,40,0,0,0,7,2,1,3,2,0,19833,1,0,14,3,2,8
1744,45,0,0,2,4,3,0,1,3,1,9756,4,0,21,2,4,0
1745,30,0,1,1,2,4,0,2,1,0,4968,0,0,16,2,3,7
1746,24,0,1,2,10,1,1,3,4,1,2145,0,0,14,2,3,2
1747,30,1,1,2,8,3,0,2,4,2,2180,6,0,11,0,2,2
1749,31,0,0,0,5,1,1,3,3,1,8346,1,0,19,3,3,2
1751,27,0,0,1,8,3,0,3,4,0,3445,1,0,11,5,2,2
1752,29,1,0,0,9,2,0,1,2,0,2760,1,0,13,3,3,2
1753,29,0,1,1,1,4,1,4,3,0,6294,8,1,12,5,4,2
1754,30,0,0,0,15,3,1,2,1,2,7140,2,0,11,2,3,7
1755,34,0,0,1,2,4,1,4,4,1,2932,0,1,14,3,3,0
1756,33,0,2,0,2,4,0,3,2,0,5147,8,0,15,2,2,7
1757,49,0,0,0,11,4,0,3,4,0,4507,3,0,12,1,4,1
1758,33,1,0,0,16,1,0,3,1,0,8564,2,1,20,2,2,0
1760,38,0,1,1,2,3,0,2,2,1,2468,4,0,14,4,2,1
1761,31,1,0,0,16,1,1,3,3,1,8161,2,0,13,2,3,0
1762,29,0,0,1,4,4,0,2,1,2,2109,1,0,13,2,3,0
1763,30,0,0,1,16,3,1,4,3,1,5294,3,0,16,3,3,0
1764,32,0,2,1,5,2,1,3,2,0,2718,2,0,14,3,3,7
1766,38,0,0,1,18,2,1,1,4,1,5811,3,1,16,2,3,0
1767,43,1,1,1,17,3,1,2,3,1,2437,9,1,16,4,3,0
1768,42,0,0,1,12,2,1,3,2,2,2766,8,0,22,6,2,3
1770,55,0,0,1,2,3,1,2,1,1,19038,8,0,12,2,3,0
1771,33,0,2,1,4,4,1,3,2,2,3055,5,0,15,2,2,8
1772,41,0,0,1,9,3,1,3,1,2,2289,1,0,20,2,3,3
1774,34,0,2,0,10,4,1,3,3,2,4001,1,1,14,3,3,14
1775,53,0,2,1,1,1,0,2,3,1,12965,4,1,20,2,2,2
1778,43,0,0,2,2,2,1,3,4,0,3539,0,0,13,5,3,7
1779,34,0,0,0,3,4,0,1,4,0,6029,5,0,12,3,3,2
1780,21,1,0,0,7,2,1,3,2,0,2679,1,0,13,3,3,0
1782,38,0,0,1,6,4,0,2,3,1,3702,1,0,11,3,3,4
1783,22,1,0,1,8,3,0,3,1,1,2398,1,1,17,6,3,0
1784,31,0,0,0,29,1,0,2,4,1,5468,1,0,14,3,3,7
1786,51,0,0,1,3,1,0,3,3,1,13116,2,0,11,2,3,2
1787,37,0,0,0,9,2,1,2,2,1,4189,1,0,14,2,3,2
1789,46,0,0,1,2,3,1,3,4,2,19328,7,1,17,3,3,1
1790,36,0,0,1,10,4,1,3,1,1,8321,7,1,13,1,3,8
1792,44,1,1,1,1,3,1,3,2,2,2342,1,1,12,2,2,3
1794,37,0,0,2,8,3,1,3,2,2,4071,2,0,13,4,2,0
1797,35,1,0,0,27,3,1,3,4,0,5813,1,1,18,2,3,7
1798,33,0,0,1,8,4,1,4,1,1,3143,6,0,19,1,3,8
1799,28,0,0,1,1,3,1,3,4,1,2044,1,0,11,6,4,3
1800,39,0,0,1,10,3,1,3,3,0,13464,7,0,21,3,3,3
1801,46,0,2,0,26,2,1,2,2,0,7991,8,0,15,3,3,2
1802,40,0,0,1,2,3,0,3,1,1,3377,4,0,17,5,2,3
1803,42,0,0,1,13,2,1,4,1,1,5538,5,0,18,2,2,0
1804,35,0,2,1,2,2,1,3,4,2,5762,2,0,14,6,3,7
1805,38,0,2,2,2,1,1,3,2,2,2592,5,0,13,3,3,10
1807,34,1,1,1,9,4,1,3,1,1,5346,4,0,17,3,2,1
1809,37,1,0,1,10,4,1,3,1,0,4213,1,0,15,4,1,3
1812,39,0,1,0,20,3,1,3,4,2,4127,2,0,18,6,3,1
1813,43,0,2,1,9,1,1,3,3,0,2438,4,0,13,2,2,2
1814,41,0,0,1,5,2,1,4,2,0,6870,3,0,12,3,1,2
1815,41,0,0,0,4,3,0,3,3,2,10447,0,1,13,3,4,14
1816,30,0,0,1,10,1,0,3,3,0,9667,9,0,14,3,3,7
1818,26,1,0,2,20,4,0,3,2,1,2148,0,1,11,3,3,1
1821,46,1,0,1,21,4,0,3,2,1,8926,4,0,22,2,4,7
1822,40,0,0,1,1,3,0,3,4,2,6513,4,0,17,3,3,3
1823,34,0,0,0,8,2,1,4,3,1,6799,1,0,21,5,3,8
1824,58,0,2,0,2,2,1,3,2,2,16291,4,0,22,0,2,9
1826,35,0,0,1,23,2,1,1,3,1,2705,0,0,16,2,4,4
1827,47,0,0,1,4,3,0,2,2,2,10333,8,1,12,4,3,11
1829,40,0,0,1,12,2,0,3,1,2,4448,2,0,12,3,3,4
1830,54,0,0,1,7,4,0,3,4,1,6854,4,0,15,2,2,1
1833,31,0,1,0,7,1,0,3,1,1,9637,2,0,14,3,3,2
1834,28,0,0,1,1,3,0,3,1,1,3591,1,0,25,3,3,2
1835,38,0,0,0,2,2,0,1,4,1,5405,2,1,20,4,2,2
1836,26,0,0,0,10,3,1,3,4,0,4684,1,0,13,4,3,3
1837,58,0,1,1,15,1,1,3,3,1,15787,2,1,14,3,3,2
1839,18,0,2,1,14,2,0,3,3,0,1514,1,0,16,4,1,0
1842,31,1,0,2,18,4,1,4,1,1,2956,0,0,17,4,3,0
1844,29,1,0,2,13,1,1,2,1,2,2335,4,1,15,3,3,2
1845,45,0,2,0,2,3,0,3,3,1,5154,4,0,22,3,4,7
1847,36,0,0,1,2,4,0,3,2,1,6962,4,1,22,2,3,0
1849,43,0,1,0,2,1,1,3,4,1,5675,1,0,20,5,3,7
1850,27,0,1,1,5,4,0,3,4,0,2379,0,1,14,3,2,4
1852,29,0,1,1,20,4,1,3,4,1,3812,1,0,13,3,4,8
1853,32,0,1,0,10,4,1,3,4,0,4648,8,0,13,2,4,0
1854,42,0,2,1,10,3,1,3,3,1,2936,3,0,22,1,2,3
1856,47,0,0,1,9,2,0,3,3,0,2105,4,0,12,2,3,2
1857,46,0,0,1,2,4,1,3,4,2,8578,3,0,14,4,2,8
1858,28,0,2,2,1,3,1,3,4,2,2706,1,0,15,2,3,2
1859,29,0,0,1,29,4,1,1,3,2,6384,8,0,17,3,3,0
1860,42,0,0,1,8,4,1,3,3,0,3968,4,0,13,3,3,0
1862,32,1,0,0,2,3,1,2,2,0,9907,7,1,12,3,2,2
1863,46,0,0,0,3,1,0,4,1,2,13225,2,0,12,5,3,17
1864,27,0,0,0,23,2,0,2,3,1,3540,1,0,21,5,3,8
1865,29,0,0,2,6,4,1,2,2,1,2804,1,0,11,3,3,0
1866,43,0,0,1,6,1,0,2,3,1,19392,7,0,13,2,3,12
1867,48,0,0,1,10,4,1,2,2,1,19665,4,0,12,3,3,10
1868,29,1,1,1,24,4,1,2,4,0,2439,1,1,24,3,2,0
1869,46,1,0,0,10,3,0,3,2,1,7314,5,0,21,2,3,7
1870,27,0,1,1,15,4,0,2,1,1,4774,0,0,19,2,2,6
1871,39,0,0,1,19,4,1,3,4,2,3902,8,0,14,2,3,2
1873,55,0,0,1,2,2,1,2,4,1,2662,8,0,20,2,4,2
1875,28,0,0,0,3,2,0,3,2,1,2856,1,0,19,3,3,0
1876,30,1,0,0,9,2,1,3,4,0,1081,1,0,13,3,2,0
1878,22,1,0,1,7,4,1,3,2,0,2472,1,1,23,2,3,0
1880,36,0,0,0,10,2,0,2,3,1,5673,1,1,13,4,3,9
1881,31,0,0,1,20,2,1,3,3,2,4197,1,0,11,2,3,8
1882,34,0,0,0,4,3,1,3,4,1,9713,2,1,13,3,3,3
1883,29,0,0,1,7,4,1,3,1,0,2062,3,0,14,2,3,2
1885,37,0,0,1,7,4,1,3,1,1,4284,5,1,22,2,3,3
1886,35,0,0,1,16,4,0,2,2,1,4788,0,1,11,2,3,2
1888,45,0,0,1,25,2,0,2,4,1,5906,0,0,13,2,2,8
1890,36,0,1,2,2,2,1,2,4,0,3886,1,0,21,2,2,1
1892,40,0,0,1,1,1,1,3,1,2,16823,2,0,11,3,3,7
1893,26,0,0,1,1,2,0,2,3,1,2933,1,1,13,3,2,0
1898,27,0,0,0,2,1,0,4,3,0,6500,0,0,14,5,2,7
1900,48,0,1,1,22,4,0,3,4,2,17174,3,0,11,3,3,17
1903,44,0,0,1,1,2,1,4,1,1,5033,2,0,15,5,3,0
1905,34,1,2,1,16,4,1,1,1,1,2307,1,1,23,2,3,2
1907,56,1,0,1,24,1,1,3,4,0,2587,1,0,16,3,3,2
1908,36,0,0,0,17,3,1,2,2,1,5507,2,0,16,1,1,2
1909,41,0,0,0,8,3,0,3,2,1,4393,5,0,21,3,3,4
1911,42,0,0,1,6,3,1,3,1,1,13348,9,0,13,3,4,7
1912,31,0,0,0,10,3,0,3,4,2,6583,2,1,11,2,3,2
1915,34,0,0,0,3,4,0,2,4,1,8103,3,1,12,3,2,2
1916,31,0,0,1,4,1,0,4,3,2,3978,8,0,12,0,2,2
1918,26,0,1,1,6,3,1,4,4,1,2544,0,0,18,3,3,7
1922,45,0,1,1,1,2,1,3,3,0,5399,4,0,12,3,3,2
1924,33,0,0,0,10,2,1,3,3,0,5487,1,0,14,2,2,4
1927,28,0,1,0,1,3,1,2,4,1,6834,1,1,12,2,3,7
1928,29,1,1,0,24,3,1,4,1,0,1091,1,0,17,3,3,0
1929,39,0,2,0,21,1,0,1,3,1,5736,6,0,19,1,3,2
1931,27,0,0,1,2,2,1,3,2,1,2226,1,0,11,3,2,3
1932,34,0,1,1,22,3,1,2,4,1,5747,1,1,15,3,3,10
1933,28,1,0,0,13,4,0,3,3,0,9854,3,1,11,0,3,0
1934,47,0,2,1,14,3,1,3,2,1,5467,8,0,18,4,4,7
1935,56,0,0,0,11,4,0,2,1,1,5380,4,0,16,3,3,0
1936,39,0,0,1,9,1,1,3,1,1,5151,1,0,25,3,3,0
1937,38,0,1,1,8,4,0,2,2,2,2133,1,1,16,3,3,11
1938,58,0,0,0,21,4,0,3,4,1,17875,4,1,13,2,2,0
1939,32,1,1,1,5,1,0,4,3,0,2432,3,1,14,2,3,1
1940,38,0,0,1,9,2,1,3,4,2,4771,2,0,19,0,4,2
1941,49,0,1,1,2,2,1,3,4,1,19161,3,0,15,3,3,4
1943,42,0,0,0,12,2,1,3,4,2,5087,3,1,12,4,3,0
1944,27,1,1,2,22,1,0,2,2,1,2863,1,0,12,2,3,0
1945,35,0,0,0,18,2,1,3,1,1,5561,0,0,16,2,1,3
1947,28,0,2,1,16,3,1,3,3,0,2144,1,0,14,3,2,3
1948,31,0,2,1,3,3,1,3,1,2,3065,1,1,13,3,4,2
1949,36,0,2,1,9,1,1,4,2,1,2810,1,0,22,3,3,4
1950,34,0,0,0,1,1,1,3,4,0,9888,1,0,21,3,2,8
1951,34,0,0,0,13,4,1,3,3,2,8628,1,0,18,2,2,7
1952,26,0,0,1,1,3,1,3,1,0,2867,0,0,13,6,2,7
1954,29,0,0,1,1,1,1,3,1,1,5373,0,0,12,5,2,3
1955,32,0,2,1,15,3,0,3,4,2,6667,5,0,18,6,3,1
1956,31,0,1,1,1,4,1,1,1,1,5003,1,0,21,6,3,8
1960,28,1,0,1,17,3,1,2,4,2,2367,5,0,12,2,2,1
1961,38,0,0,0,1,1,1,2,1,0,2858,4,0,14,3,2,0
1962,35,0,0,0,7,3,0,3,4,1,5204,1,1,11,2,3,8
1965,27,0,0,0,9,4,1,3,4,0,4105,1,0,14,5,3,7
1966,32,0,0,1,5,4,1,2,4,0,9679,8,0,24,1,3,0
1967,31,1,1,0,26,1,1,3,4,1,5617,1,1,11,4,3,7
1968,53,1,0,0,24,1,1,3,1,0,10448,6,1,13,2,2,2
1969,54,0,0,1,9,1,0,3,3,1,2897,3,0,11,6,2,3
1970,33,0,1,1,7,4,1,3,3,2,5968,1,0,20,2,3,7
1971,43,0,0,1,11,1,1,3,3,1,7510,1,0,17,1,3,9
1972,38,0,1,2,1,4,1,3,2,1,2991,0,1,11,2,3,2
1973,55,0,0,2,26,3,1,4,2,1,19636,4,1,18,0,3,9
1974,31,0,0,1,2,4,0,1,4,2,1129,1,1,11,4,3,0
1975,39,0,0,0,15,2,1,3,1,0,13341,0,0,12,3,3,8
1976,42,0,2,1,23,4,1,2,3,0,4332,1,0,12,2,3,9
1979,31,0,2,1,10,3,0,3,3,1,11031,4,0,20,2,4,7
1980,54,0,0,1,10,3,0,3,1,0,4440,6,1,19,3,3,2
1981,24,0,0,1,1,2,1,2,3,0,4617,1,0,12,2,2,3
1982,23,0,0,1,12,4,1,3,4,0,2647,1,0,13,6,4,2
1985,40,0,1,1,11,4,0,3,3,1,6323,1,0,11,2,4,9
1986,40,0,0,0,2,2,0,3,2,1,5677,3,0,14,4,3,8
1987,25,0,0,2,2,3,0,3,2,1,2187,4,0,14,3,3,0
1989,30,0,0,1,1,4,1,3,2,1,3748,1,0,13,6,2,8
1992,25,0,0,1,2,4,1,3,3,2,3977,6,1,19,2,2,2
1993,47,0,0,1,25,1,1,3,3,0,8633,2,0,23,3,3,14
1994,33,0,2,1,1,2,1,2,3,2,2008,1,0,12,2,2,1
1995,38,0,0,0,1,4,1,3,2,1,4440,0,0,15,3,3,13
1996,31,0,0,0,2,1,1,3,3,1,3067,0,0,19,1,3,2
1997,38,0,1,1,6,1,1,2,3,1,5321,2,0,11,1,3,3
1998,42,0,0,1,18,4,1,3,1,2,5410,6,1,17,3,2,3
1999,41,0,0,1,1,4,1,3,4,1,2782,3,0,22,3,3,3
2000,47,0,2,1,1,3,0,3,2,1,11957,0,0,18,3,1,8
2003,35,0,0,1,11,4,1,3,3,1,2660,7,1,11,3,3,2
2007,22,0,0,1,1,4,1,3,3,0,3375,0,0,12,2,4,2
2008,35,0,0,1,9,2,1,3,3,0,5098,1,0,19,5,3,7
2009,33,0,0,1,15,2,0,3,4,1,4878,0,1,13,6,3,7
2010,32,0,0,1,29,3,0,2,2,0,2837,1,0,13,3,3,2
2012,40,0,0,1,1,1,1,3,4,1,2406,8,0,19,3,2,0
2013,32,0,0,0,1,2,1,2,2,1,2269,0,0,14,2,3,2
2014,39,0,0,1,24,1,1,3,4,0,4108,7,0,13,2,3,7
2015,38,0,0,1,10,2,0,1,3,1,13206,3,0,12,3,3,16
2016,32,0,0,0,1,3,0,3,4,1,10422,1,0,19,3,3,10
2017,37,0,0,1,10,3,0,4,4,1,13744,1,1,25,2,3,11
2018,25,0,0,0,8,1,0,3,3,2,4907,0,1,22,3,2,3
2019,52,0,2,0,29,1,1,3,4,2,3482,2,0,15,3,2,8
2020,44,0,0,1,1,2,1,3,4,0,2436,6,1,12,2,3,3
2021,21,0,0,0,5,3,1,3,1,0,2380,1,1,11,6,3,2
2022,39,0,2,1,9,4,1,3,4,0,19431,2,0,13,3,2,0
2023,23,1,1,0,9,4,1,3,1,1,1790,1,0,19,3,2,0
2024,36,0,0,0,3,1,0,2,4,1,7644,0,0,19,2,3,7
2025,36,0,1,1,4,4,0,3,2,2,5131,7,0,13,3,3,2
2026,56,0,2,1,1,3,1,3,3,2,6306,1,0,21,2,2,12
2027,29,1,0,1,1,1,1,3,4,1,4787,9,1,14,3,4,2
2031,42,0,0,1,2,1,1,3,3,1,18880,5,0,11,2,2,6
2032,56,1,0,1,7,4,1,3,3,1,2339,8,0,11,4,1,9
2034,41,0,0,1,28,1,0,2,2,1,13570,0,0,23,3,3,7
2035,34,0,0,0,28,4,0,2,3,1,6712,1,0,21,2,3,7
2036,36,0,2,0,15,4,1,1,4,2,5406,1,0,24,4,2,12
2037,41,0,0,0,3,3,1,2,2,2,8938,2,0,11,5,3,4
2038,32,0,0,1,2,4,1,3,1,0,2439,1,0,14,4,3,2
2040,35,0,0,2,26,3,0,3,4,0,8837,1,1,16,2,3,0
2041,38,0,0,0,10,1,0,3,4,1,5343,1,0,11,1,3,7
2044,50,1,1,0,1,2,1,3,3,2,6728,7,0,12,3,3,3
2045,36,0,0,0,11,2,0,2,4,1,6652,4,0,13,2,2,3
2046,45,0,0,0,20,4,0,3,3,0,4850,8,0,15,3,3,3
2048,40,0,0,1,2,3,1,2,3,0,2809,2,0,14,2,3,2
2049,35,0,1,1,18,3,1,3,3,1,5689,1,1,14,2,4,2
2051,40,0,0,1,2,3,0,3,3,1,2001,2,0,14,2,3,3
2052,35,0,0,1,1,3,0,1,4,1,2977,1,0,12,5,3,3
2053,29,0,0,1,13,4,1,2,2,1,4025,4,1,13,2,3,3
2054,29,0,0,1,28,4,0,2,1,0,3785,1,0,14,3,1,4
2055,50,1,0,0,28,4,1,2,1,2,10854,4,1,13,3,3,2
2056,39,0,0,0,24,2,0,2,4,1,12031,0,0,11,2,2,9
2057,31,0,2,1,5,2,1,3,1,0,9936,0,0,19,2,3,4
2060,26,0,0,0,5,4,0,2,3,0,2966,0,0,18,2,3,2
2061,36,0,1,1,23,3,1,4,4,1,2571,4,0,17,3,3,2
2062,39,0,0,1,6,4,1,2,1,1,9991,4,0,15,5,3,7
2064,27,0,0,1,4,2,1,4,2,1,6142,1,1,20,0,3,2
2065,49,0,1,0,2,4,1,2,2,1,5390,2,0,14,3,2,6
2068,34,0,0,1,8,2,1,4,3,1,4404,2,0,12,3,4,3
